http://farm5.static.flickr.com/4020/4333291039_ecc7f28ae1.jpg
http://farm1.static.flickr.com/18/92884981_7308c353d3.jpg
http://farm4.static.flickr.com/3334/3629653110_24a13f2f1a.jpg
http://rmbr.nus.edu.sg/images4latest/icc2002/trasheverywhere.jpg
http://photos3.fotosearch.com/bthumb/DVA/DVA008/004-0247.jpg
http://www.thedailygreen.com/cm/thedailygreen/images/3S/garbage-dependence-lg.jpg
http://www.ens-newswire.com/ens/jul2010/20100706_baghdadgarbage.jpg
http://www.gazette.net/images/2010_0602/trashpg060310w_rgbb.jpg
http://farm5.static.flickr.com/4004/4319508570_0fc0753fdb.jpg
http://farm5.static.flickr.com/4013/4686941757_423712318f.jpg
http://farm1.static.flickr.com/145/408276708_7cea1e55c4.jpg
http://www.sunshin.org/freestockimages/slides/beachpollution01_f4.jpg
http://acc6.its.brooklyn.cuny.edu/~scintech/solid/Images/trashpile.jpg
http://farm3.static.flickr.com/2432/4023018394_e50f71a758.jpg
http://farm4.static.flickr.com/3190/2837519484_0920d63469.jpg
http://gossiponthis.com/wp-content/uploads/2011/01/trash.jpg
http://farm5.static.flickr.com/4016/4667071929_7c8c0ed2c8.jpg
http://farm5.static.flickr.com/4146/5001585803_0bfc935e58.jpg
http://msnbcmedia1.msn.com/j/ap/c6e84a69-710f-4222-95d5-e775afdbca12.grid-6x2.jpg
http://www.jaymeblaschke.com/images/CRimg12.jpg
http://farm4.static.flickr.com/3618/3600992935_7c32333f94.jpg
http://www.keepaustinbeautiful.org/files/u2/Clean_Sweep_trash_pile.jpg
http://farm4.static.flickr.com/3034/2687078769_95de45b44d.jpg
http://farm4.static.flickr.com/3595/3508147983_90583887f8.jpg
http://farm5.static.flickr.com/4105/5067470505_ff87f73695.jpg
http://blogs.reuters.com/adam-pasick/files/2009/10/1255628127.jpg
http://farm1.static.flickr.com/53/177183648_e8adcb77e8.jpg
http://farm4.static.flickr.com/3368/3178872488_5da58fae21.jpg
http://farm5.static.flickr.com/4092/4840660125_09acf95044.jpg
http://farm6.static.flickr.com/5047/5310775662_684d3a4a71.jpg
http://www.adamandjamiegreene.com/wp-content/uploads/2010/12/IMG_00021.jpg
http://farm1.static.flickr.com/179/450010913_c85e8e0847.jpg
http://www.istockphoto.com/file_thumbview_approve/7053342/2/istockphoto_7053342-pile-of-trash.jpg
http://www.fredericknewspost.com/photos/08/03/16/72525_large.jpg
http://farm3.static.flickr.com/2707/4170694346_9ae1730d07.jpg
http://graphics8.nytimes.com/images/2010/01/22/world/22haiti_CA0_337_span/articleLarge.jpg
http://farm6.static.flickr.com/5206/5310346563_bf7454ee03.jpg
http://3.bp.blogspot.com/_ldFi3ipcRsU/TB9eYtHX8DI/AAAAAAAADdI/sbSQ2XDVlsE/S1600-R/Ant+Trash+Pile+What+is+it.jpg
http://farm4.static.flickr.com/3261/2859632785_6b71b86e53.jpg
http://farm5.static.flickr.com/4077/4820967433_f5b4ffcb0a.jpg
http://farm3.static.flickr.com/2780/4521205182_5f84ae2d45.jpg
http://archive.perfectduluthday.com/WestDuluthArcheology.JPG
http://farm3.static.flickr.com/2438/3671918761_c61342558b.jpg
http://farm1.static.flickr.com/185/439508952_f35abbeafa.jpg
http://farm4.static.flickr.com/3109/2896676468_7b489c8bb6.jpg
http://www.pinktentacle.com/images/oscar_trash_3.jpg
http://farm1.static.flickr.com/220/486294135_8fa5a615ce.jpg
http://www.trashsociety.com/wp-content/uploads/2011/03/trash-pile-abandoned-house-holy-bible-glad-wrap-papers.jpeg
http://katherinenewcomer.theworldrace.org/blogphotos/theworldrace/katherinenewcomer/DSC00576.JPG
http://farm1.static.flickr.com/20/72060375_d918feee8d.jpg
http://www.stoptheburn.com/trashpile.jpg
http://farm6.static.flickr.com/5123/5232838109_5721067b49.jpg
http://docnz.files.wordpress.com/2010/08/general-waste.jpg
http://farm4.static.flickr.com/3148/2997690319_bb6d2ca873.jpg
http://192.156.19.109/marinelink/image1.nsf/Lookup/200610561513/$file/061002-M-8112O-SOUK8lr.jpg
http://farm6.static.flickr.com/5302/5568991726_e1aa888e8b.jpg
http://farm6.static.flickr.com/5167/5351059272_e0c5bd8bfd.jpg
http://farm1.static.flickr.com/24/52396159_aa08a04d5a.jpg
http://farm1.static.flickr.com/58/196210125_edb26e92d9.jpg
http://orientaldaily.on.cc/cnt/news/20110105/photo/0105-00176-011h1.jpg
http://farm2.static.flickr.com/1129/632979604_6c185df19a.jpg
http://s40947.gridserver.com/files/imagecache/services_lg/trash%20pile%20cropped.JPG
http://farm5.static.flickr.com/4069/4665955410_d7d82f1957.jpg
http://freak.minimanga.com/tvrr/tvrr3.jpg
http://farm3.static.flickr.com/2615/3731118589_097baf2dc9.jpg
http://farm1.static.flickr.com/27/40702534_2646181c1f.jpg
http://farm1.static.flickr.com/162/359943181_053eabe04b.jpg
http://farm4.static.flickr.com/3392/3414314900_b9e1927e0e.jpg
http://farm4.static.flickr.com/3657/3614117423_600ab3d511.jpg
http://farm4.static.flickr.com/3555/3368804917_8bce9a6118.jpg
http://farm3.static.flickr.com/2297/2143024889_e4610791ef.jpg
http://farm4.static.flickr.com/3474/3375460943_982bc096f4.jpg
http://farm3.static.flickr.com/2255/2491801915_39e7abcf5a.jpg
http://image.shutterstock.com/display_pic_with_logo/77235/77235,1262976649,2/stock-photo-trash-pile-of-discarded-computer-parts-circuit-boards-and-memory-modules-all-logos-trademark-44050366.jpg
http://www.eugenecarsey.com/camp/salvationmountain/slab06trash05.jpg
http://farm5.static.flickr.com/4071/4568474860_487742ba36.jpg
http://farm5.static.flickr.com/4085/4954863189_c6870a0d0e.jpg
http://farm3.static.flickr.com/2514/3675642992_2d62e3db45.jpg
http://farm3.static.flickr.com/2531/4002126710_865a2bf908.jpg
http://www.imageafter.com/dbase/images/architecture_interiors/b10architecture_interiors002.jpg
http://farm2.static.flickr.com/1400/1484424184_b2b4b55245.jpg
http://farm3.static.flickr.com/2381/2227347206_667f2dcaa0.jpg
http://farm2.static.flickr.com/1162/4730860729_4e1625d253.jpg
http://farm5.static.flickr.com/4116/4888169431_af55a67245.jpg
http://farm3.static.flickr.com/2371/2021220879_b436b1d11f.jpg
http://farm5.static.flickr.com/4083/4842363639_48bff9432e.jpg
http://farm6.static.flickr.com/5179/5513257053_e44492f289.jpg
http://farm5.static.flickr.com/4140/4748731199_d0efc34cd8.jpg
http://farm5.static.flickr.com/4147/5171693220_edf15e95cd.jpg
http://farm5.static.flickr.com/4121/4748726069_b155845381.jpg
http://farm4.static.flickr.com/3298/3421105814_7653c600ed.jpg
http://farm1.static.flickr.com/121/297744492_b102774109.jpg
http://farm6.static.flickr.com/5264/5573089005_b6f0b8fd1a.jpg
http://farm2.static.flickr.com/1191/1454489500_efacc74f9b.jpg
http://farm3.static.flickr.com/2318/2269378969_6d732c5cef.jpg
http://www.dosomething.org/files/imagecache/dhtml_slider_image/files/pictures/garbage-pile.jpg
http://www.sikurtz.com/wp-content/uploads/2009/04/e-waste-pile-1.jpg
http://farm3.static.flickr.com/2460/3614601419_30e0b88f65.jpg
http://images.usatoday.com/Wires2Web/20070711/1757084902_ITALY_STINKY_NAPLESx-large.jpg
http://farm2.static.flickr.com/1395/1435175989_8cef0267e8.jpg
http://farm3.static.flickr.com/2317/2509310615_62f53641a5.jpg
http://farm5.static.flickr.com/4151/4979528576_df1dff8c4a.jpg
http://farm4.static.flickr.com/3163/3002968618_f833547c91.jpg
http://farm1.static.flickr.com/13/92217473_febd77f3ab.jpg
http://farm5.static.flickr.com/4116/4747078834_80b539601e.jpg
http://farm5.static.flickr.com/4043/4240361765_e07078cb1b.jpg
http://farm3.static.flickr.com/2501/3731116525_77a7b560df.jpg
http://farm2.static.flickr.com/1233/1253758165_6e93db93f5.jpg
http://farm4.static.flickr.com/3639/3358960339_49ffdd4b48.jpg
http://farm2.static.flickr.com/1375/1312453154_be01630c34.jpg
http://farm5.static.flickr.com/4014/4339577246_fdeeff55b9.jpg
http://farm4.static.flickr.com/3402/3422422724_d41dd0aee3.jpg
http://farm5.static.flickr.com/4015/4691598186_c8bf39e027.jpg
http://farm4.static.flickr.com/3507/3881981189_dde2e8e270.jpg
http://farm1.static.flickr.com/205/503480333_a48f76be01.jpg
http://farm1.static.flickr.com/32/46259263_b38e7ee566.jpg
http://3.bp.blogspot.com/_nUejkXd8uW4/TAP4YUL0GmI/AAAAAAAACZY/14dbpH97FGg/s320/glass+beach+california.JPG
http://farm1.static.flickr.com/110/363927459_14115387ef.jpg
http://farm3.static.flickr.com/2458/3620798932_0b53212733.jpg
http://farm3.static.flickr.com/2554/3731116503_ae52210661.jpg
http://farm3.static.flickr.com/2124/2227345332_598697ee80.jpg
http://farm5.static.flickr.com/4073/4790739230_a2ee6ccd20.jpg
http://farm6.static.flickr.com/5250/5379567289_c9a89522eb.jpg
http://farm2.static.flickr.com/1319/642381931_2f52d8003a.jpg
http://assets.nydailynews.com/img/2009/10/09/alg_pile-o-trash.jpg
http://farm4.static.flickr.com/3180/2444528713_e656b6725b.jpg
http://farm2.static.flickr.com/1309/616313188_887b4c7e0b.jpg
http://farm1.static.flickr.com/3/4941737_d9c0a268d5.jpg
http://farm4.static.flickr.com/3489/3927201252_941dc72ff3.jpg
http://farm4.static.flickr.com/3247/3118289839_d3bf958136.jpg
http://farm3.static.flickr.com/2743/4338545970_36b79aff3a.jpg
http://farm1.static.flickr.com/154/344563186_bf2a98d312.jpg
http://farm3.static.flickr.com/2019/2407151440_b43a28512e.jpg
http://farm4.static.flickr.com/3642/3506244732_452d153ca0.jpg
http://farm5.static.flickr.com/4001/4319015269_235291e556.jpg
http://farm6.static.flickr.com/5058/5553510283_c3b4acb232.jpg
http://farm3.static.flickr.com/2634/4073109238_f441c01493.jpg
http://farm3.static.flickr.com/2673/3779128008_748ebb6f0f.jpg
http://farm3.static.flickr.com/2301/2510164956_e0f958272f.jpg
http://blog.ecochange.org/__oneclick_uploads/2009/04/pile-of-garbage.jpg
http://www.randomthreads.com/wordpress/wp-content/images/IMG_1784.JPG
http://farm6.static.flickr.com/5127/5335107281_216afecdcb.jpg
http://farm3.static.flickr.com/2557/3960119149_aeea495b47.jpg
http://farm3.static.flickr.com/2625/3856558008_a7ee898a3c.jpg
http://farm3.static.flickr.com/2638/4241179288_1313429b3a.jpg
http://farm3.static.flickr.com/2113/2207920590_8d6f285a87.jpg
http://farm1.static.flickr.com/3/4735510_c1296f19f3.jpg
http://farm1.static.flickr.com/76/203840877_7b63abf9ca.jpg
http://farm4.static.flickr.com/3664/3662845440_6a407560ed.jpg
http://farm3.static.flickr.com/2720/4062173959_221b5082f1.jpg
http://farm4.static.flickr.com/3441/3225809154_ca144338c5.jpg
http://farm1.static.flickr.com/28/51774011_de4d234c99.jpg
http://img2.allvoices.com/thumbs/event/609/480/63807376-rubish.jpg?exclusive=true&1284884531
http://farm4.static.flickr.com/3030/2762193598_60f3392c4c.jpg
http://farm2.static.flickr.com/1337/841110155_a7b500b617.jpg
http://farm3.static.flickr.com/2015/2533812182_13072d90b1.jpg
http://farm1.static.flickr.com/163/393834664_d30f33904f.jpg
http://farm4.static.flickr.com/3041/2981286752_7a859af107.jpg
http://farm3.static.flickr.com/2640/4149168097_13f146ce47.jpg
http://farm4.static.flickr.com/3262/3171973583_c074c31723.jpg
http://www.ashercrispe.com/interinclusion/wp-content/uploads/2010/12/dv118081-trash-pile-1.1-300x225.jpg
http://farm1.static.flickr.com/177/445656286_6aff2a8795.jpg
http://farm4.static.flickr.com/3218/2296064950_e825203f5e.jpg
http://farm2.static.flickr.com/1175/531106736_5590f34149.jpg
http://farm2.static.flickr.com/1291/4707418035_ae529aa403.jpg
http://farm1.static.flickr.com/46/145775367_f431255a29.jpg
http://farm1.static.flickr.com/92/277560968_990de1af0a.jpg
http://farm1.static.flickr.com/159/380787693_d2b136a875.jpg
http://farm2.static.flickr.com/1162/549001060_33543e2fcd.jpg
http://farm1.static.flickr.com/82/261617744_dae403e7ae.jpg
http://farm1.static.flickr.com/101/258140905_acb3df8bd0.jpg
http://farm5.static.flickr.com/4140/4748867937_27c4b09493.jpg
http://farm3.static.flickr.com/2614/3808339015_8c19507571.jpg
http://farm4.static.flickr.com/3276/2951933947_a0d5b265d4.jpg
http://farm2.static.flickr.com/1011/1398391088_e2d8d91778.jpg
http://farm3.static.flickr.com/2022/3604513608_27cdd55771.jpg
http://farm1.static.flickr.com/69/186722052_d62fd8a822.jpg
http://farm5.static.flickr.com/4123/4820967917_5e9e0734b7.jpg
http://farm3.static.flickr.com/2487/3979481521_fd420db43c.jpg
http://farm4.static.flickr.com/3504/3893974224_52ed305427.jpg
http://farm1.static.flickr.com/27/139929936_04be486d40.jpg
http://www.srcoop.com/images/hgfig2.gif
http://farm4.static.flickr.com/3005/3031277311_911275e293.jpg
http://farm5.static.flickr.com/4138/4748657161_1621e353d4.jpg
http://farm1.static.flickr.com/48/152210664_46047018bc.jpg
http://2.bp.blogspot.com/_Iz_l8KoHx84/TTfIyoiPAeI/AAAAAAAAE8Q/RslG7nCLobY/s400/Trash+Pile.jpeg
http://www.ecu.edu/renci/StormsToLife/Floyd/images/trashpile.jpg
http://farm4.static.flickr.com/3057/2322821700_7ac174eda8.jpg
http://farm4.static.flickr.com/3320/3660243201_f8228fdeb0.jpg
http://farm1.static.flickr.com/35/100473086_d1ee5287b4.jpg
http://farm4.static.flickr.com/3343/3422534569_04a9912c86.jpg
http://farm4.static.flickr.com/3338/3506340844_96f7158a9d.jpg
http://farm5.static.flickr.com/4141/4749702180_62dca7bc21.jpg
http://www.jamesmaherphotography.com/photo/image/232/trashpile_katrina4.jpg
http://farm5.static.flickr.com/4070/4417197451_64e261e99e.jpg
http://farm6.static.flickr.com/5241/5294813373_ece84cfc62.jpg
http://farm3.static.flickr.com/2027/2159697481_3b65298938.jpg
http://farm5.static.flickr.com/4056/4405014983_b4bcdc5352.jpg
http://farm5.static.flickr.com/4123/4799115691_8c883d9158.jpg
http://farm1.static.flickr.com/104/292030411_6cf0f5feb0.jpg
http://farm4.static.flickr.com/3040/3032111766_08e033c6ed.jpg
http://farm3.static.flickr.com/2795/4356765534_752e55ed8a.jpg
http://farm2.static.flickr.com/1429/779861420_68e40f8f9e.jpg
http://farm2.static.flickr.com/1276/4660449498_325a4cd985.jpg
http://farm3.static.flickr.com/2459/3731915836_57e1bffd1d.jpg
http://farm3.static.flickr.com/2802/4166576659_77d743f992.jpg
http://farm3.static.flickr.com/2450/3678882612_71cdb27a13.jpg
http://farm4.static.flickr.com/3201/2687085961_e601b34d5a.jpg
http://farm5.static.flickr.com/4146/4842593620_97b06c1e0e.jpg
http://farm1.static.flickr.com/176/468280074_14b79bca1f.jpg
http://farm2.static.flickr.com/1313/1057226954_1c0875bd65.jpg
http://www.cbc.ca/gfx/images/news/photos/2010/10/13/nl-eaton-trash-1013_1.jpg
http://farm4.static.flickr.com/3232/3056049521_3e0b1280e6.jpg
http://farm4.static.flickr.com/3235/3014592552_6246d9abed.jpg
http://farm1.static.flickr.com/149/357310702_08909419c8.jpg
http://farm4.static.flickr.com/3421/3754725350_f1382f88d5.jpg
http://farm4.static.flickr.com/3594/3422351376_7ca465d52e.jpg
http://farm4.static.flickr.com/3492/3839542929_64b749e118.jpg
http://farm4.static.flickr.com/3545/3806150180_395258e47a.jpg
http://farm1.static.flickr.com/9/12571437_f88a7ea443.jpg
http://farm5.static.flickr.com/4100/4749570770_b051fbf884.jpg
http://farm2.static.flickr.com/1151/1069855901_16440979ce.jpg
http://farm6.static.flickr.com/5298/5409242490_7a807615e7.jpg
http://farm5.static.flickr.com/4122/4746812602_750fc813f7.jpg
http://api.ning.com/files/HvhEvp7piZ638a*vFWa1cCQFuzVGVg3aS*3nsIxkMfqxDELqBtjHlddLYXuYAcERJOnVfVQf5YzZ*Q6iMx-S-f4Ofd4750Zo/badbadburnpile.JPG
http://farm4.static.flickr.com/3375/4603289415_309302d5d1.jpg
http://farm1.static.flickr.com/53/144228052_a18077d9f3.jpg
http://farm3.static.flickr.com/2349/2338137013_0f1a4eded8.jpg
http://farm6.static.flickr.com/5211/5452665319_9a544f9bea.jpg
http://farm4.static.flickr.com/3561/3685022980_0a02f978fd.jpg
http://farm4.static.flickr.com/3211/2830366966_40941ec153.jpg
http://farm5.static.flickr.com/4074/4748674071_2ba6f2a883.jpg
http://farm4.static.flickr.com/3466/3736804515_5de3476490.jpg
http://farm1.static.flickr.com/15/21659276_f7a137ba8e.jpg
http://farm2.static.flickr.com/1063/1277685425_e716bc0dfe.jpg
http://farm3.static.flickr.com/2705/4535374143_6633b0aeb6.jpg
http://farm3.static.flickr.com/2312/2161368171_6c22f2d10b.jpg
http://humanitarian.worldconcern.org/wp-content/uploads/2009/05/humanitarian-asia-bangladesh-dump2.jpg
http://farm3.static.flickr.com/2464/3982431820_4934b7c74c.jpg
http://farm3.static.flickr.com/2270/2104566077_a3608e68bd.jpg
http://farm1.static.flickr.com/147/410587603_2ac551101a.jpg
http://farm3.static.flickr.com/2001/2159696129_a80e2766e7.jpg
http://farm4.static.flickr.com/3101/2640943970_e9f148daae.jpg
http://farm1.static.flickr.com/143/359027461_c6d940515a.jpg
http://media2.ct.yelpcdn.com/bphoto/qs3Of27VtXnnOXBv-_eQYQ/l
http://farm4.static.flickr.com/3269/2609858322_e737fffa80.jpg
http://farm4.static.flickr.com/3522/3208250712_cca6e4865b.jpg
http://farm4.static.flickr.com/3028/2993382921_a91b8be81d.jpg
http://farm5.static.flickr.com/4011/4396107124_6133a4379b.jpg
http://farm4.static.flickr.com/3255/2620589890_94eabc101c.jpg
http://farm2.static.flickr.com/1115/559096827_a235386ccf.jpg
http://farm1.static.flickr.com/128/410835751_40eb6575b5.jpg
http://farm3.static.flickr.com/2396/2498113237_abb50e060d.jpg
http://farm4.static.flickr.com/3514/3189288704_c461697b8c.jpg
http://farm6.static.flickr.com/5251/5576345382_a06b760057.jpg
http://farm4.static.flickr.com/3214/4553332756_d4391772a6.jpg
http://farm1.static.flickr.com/53/116095516_7ee02d29e9.jpg
http://farm3.static.flickr.com/2488/3731914688_371e1163a3.jpg
http://lh5.ggpht.com/_2WUkHr6LGNo/SCifTG9ctBI/AAAAAAAABtM/uX1rXdmjjKc/P1000519.jpg
http://farm3.static.flickr.com/2686/4054946471_f15e6d3352.jpg
http://farm3.static.flickr.com/2293/2099197435_7fe7babd85.jpg
http://farm1.static.flickr.com/184/377681462_617e904331.jpg
http://www.sierrabear.com/home/images/trash/provotrash.jpg
http://farm4.static.flickr.com/3149/2644955975_fc258770ec.jpg
http://farm5.static.flickr.com/4010/4290022174_3bdb619d65.jpg
http://farm5.static.flickr.com/4143/4937519883_23c5cd34a8.jpg
http://farm1.static.flickr.com/4/5130830_f0e048bba8.jpg
http://farm5.static.flickr.com/4034/4495132542_065f9652ea.jpg
http://farm3.static.flickr.com/2614/4144571828_fd360cb288.jpg
http://farm3.static.flickr.com/2314/1798254814_bde08e666b.jpg
http://farm1.static.flickr.com/205/492173084_e46d434984.jpg
http://farm2.static.flickr.com/1128/1485920900_58fd8ca341.jpg
http://farm4.static.flickr.com/3059/3041606380_fcf0f5975a.jpg
http://farm5.static.flickr.com/4076/4749603064_b2a79ee93e.jpg
http://farm4.static.flickr.com/3217/2402156169_630c6fd179.jpg
http://farm5.static.flickr.com/4035/4349654258_1a9e632010.jpg
http://farm2.static.flickr.com/1332/889724690_a9de1abe3b.jpg
http://farm1.static.flickr.com/34/105306090_f56f5695e7.jpg
http://farm5.static.flickr.com/4133/5175420828_6320fa4a04.jpg
http://farm4.static.flickr.com/3062/2580270581_2f03063d9b.jpg
http://www.earthman.tv/2004/forums/images/trashtoenergy/trashpile.jpg
http://farm6.static.flickr.com/5125/5268739021_5ec98911e7.jpg
http://2.bp.blogspot.com/_T4O2DWK0Pjs/SPdxQNB8fuI/AAAAAAAAAGo/B-Z-ZkDN6L0/s400/basura.gif
http://farm5.static.flickr.com/4009/4424803455_3145b7f7f5.jpg
http://farm4.static.flickr.com/3225/2418081468_c6d9b9131f.jpg
http://farm5.static.flickr.com/4020/4649216409_2ded31097d.jpg
http://farm3.static.flickr.com/2067/2198060448_74d0ee3844.jpg
http://farm5.static.flickr.com/4085/5005246322_313451524b.jpg
http://farm4.static.flickr.com/3059/2673569746_bdcde668f2.jpg
http://farm4.static.flickr.com/3112/2682856070_07a7c20cce.jpg
http://farm3.static.flickr.com/2616/3725859307_8a6d235b0e.jpg
http://farm1.static.flickr.com/45/148821665_9085b0b794.jpg
http://farm3.static.flickr.com/2584/3962097367_dce982818a.jpg
http://farm2.static.flickr.com/1070/1018548855_2b96a1036d.jpg
http://farm1.static.flickr.com/216/482662711_ea860850b1.jpg
http://farm1.static.flickr.com/65/198425870_b2a958d1ca.jpg
http://gossiponthis.com/wp-content/uploads/2011/01/trash-250x250.jpg
http://farm5.static.flickr.com/4016/4523210698_4d43b7e2a0.jpg
http://www.nanfa.org/NANFAregions/tx/txnfw/PicknUpTrash.jpg
http://farm4.static.flickr.com/3306/3235215199_c6c2098132.jpg
http://farm2.static.flickr.com/1343/1419644818_3c4680df72.jpg
http://farm3.static.flickr.com/2013/2264539820_2a5b05b168.jpg
http://sambot.com/images/postimages/boxes-lg.jpg
http://farm5.static.flickr.com/4014/4453571055_04b63b626f.jpg
http://farm1.static.flickr.com/70/218358758_b54eed6556.jpg
http://farm2.static.flickr.com/1099/1403973392_0466ef88cc.jpg
http://farm2.static.flickr.com/1300/715735149_b9f813eeae.jpg
http://farm4.static.flickr.com/3242/3031275801_cf3bf7e100.jpg
http://phoenix.gov/webcms/groups/internet/@inter/@dept/@pubworks/@garb/@bulk/documents/web_content/pwd_img_bulk_trash_pile.jpg
http://upload.wikimedia.org/wikipedia/commons/thumb/f/f5/Trash_pile_Albania.jpg/120px-Trash_pile_Albania.jpg
http://farm4.static.flickr.com/3104/2815228519_6d8faf6fdc.jpg
http://farm4.static.flickr.com/3144/2932771572_bf8cb08315.jpg
http://farm4.static.flickr.com/3328/3487918246_a77af00e75.jpg
http://assets.nydailynews.com/img/2011/01/01/89x68-amd_trash_pile.jpg
http://farm2.static.flickr.com/1222/1454638138_510f1ae62a.jpg
http://farm5.static.flickr.com/4137/4745830515_c968fbb27a.jpg
http://farm4.static.flickr.com/3267/2716051788_ae1d70f516.jpg
http://farm3.static.flickr.com/2097/2231966914_dd18d18a46.jpg
http://farm2.static.flickr.com/1306/4692934575_f8080ee256.jpg
http://farm3.static.flickr.com/2739/4180361917_2ae124ba76.jpg
http://farm5.static.flickr.com/4022/4565652193_72ca57b245.jpg
https://mayors24.cityofboston.gov:4443/attachments/4d45bb5c0882cf0d14000057/other.jpg
http://farm6.static.flickr.com/5295/5410660921_a12b9143de.jpg
http://farm5.static.flickr.com/4002/4394594260_55576eb4eb.jpg
http://farm1.static.flickr.com/119/277559021_41a806552d.jpg
http://farm4.static.flickr.com/3644/3642584510_7139dd9504.jpg
http://farm3.static.flickr.com/2606/4204318615_126de90348.jpg
http://farm2.static.flickr.com/1270/864423741_3d35c8aa01.jpg
http://farm4.static.flickr.com/3582/3697848800_163210d614.jpg
http://farm6.static.flickr.com/5246/5242561039_35998a890e.jpg
http://farm4.static.flickr.com/3436/3387190289_7744922561.jpg
http://farm6.static.flickr.com/5284/5298062860_8473585e67.jpg
http://farm4.static.flickr.com/3148/2608924872_735b6694f0.jpg
http://farm4.static.flickr.com/3651/3487552935_a0f18f286e.jpg
http://babygotbooks.com/nola-7.jpg
http://farm4.static.flickr.com/3597/3525152211_66eb9941e6.jpg
http://farm5.static.flickr.com/4053/4691598892_72fda5dbb2.jpg
http://farm1.static.flickr.com/129/324372848_c874c93db4.jpg
http://static.wix.com/media/7f5de1a9c305277f3d507e1a2dc5b3d5.wix_mp_128
http://farm4.static.flickr.com/3452/3731116387_e139a44d3a.jpg
http://farm4.static.flickr.com/3380/4609441394_e43be4240b.jpg
http://www.relaxorium.com/journalpics/max3-10.jpg
http://farm3.static.flickr.com/2671/3855768987_becc4c2b58.jpg
http://farm1.static.flickr.com/147/402701756_9111ca6ab4.jpg
http://farm3.static.flickr.com/2236/2311629577_b83d780cf4.jpg
http://farm4.static.flickr.com/3470/3972030521_b4c7f103c6.jpg
http://farm6.static.flickr.com/5142/5569966904_b6605474b3.jpg
http://farm3.static.flickr.com/2680/4318312347_4d701cfa3d.jpg
http://farm1.static.flickr.com/30/60901191_1eacf9bc01.jpg
http://farm2.static.flickr.com/1277/643246146_3ceac92a87.jpg
http://farm1.static.flickr.com/54/148501694_5eabd92c6c.jpg
http://farm5.static.flickr.com/4014/4341995588_c45a2c4cee.jpg
http://farm6.static.flickr.com/5140/5537030609_b31e2daf49.jpg
http://farm1.static.flickr.com/144/357314987_0bf84cf326.jpg
http://farm2.static.flickr.com/1273/1303517118_bbe8721eb0.jpg
http://farm1.static.flickr.com/211/502638542_46b92d77be.jpg
http://farm2.static.flickr.com/1081/1040350213_b202aa4922.jpg
http://eyesonbrazil.files.wordpress.com/2010/03/25_mhg_lixo_angelicabarbosa.jpg
http://farm5.static.flickr.com/4058/4579979306_a9254e634c.jpg
http://farm2.static.flickr.com/1285/1399898388_fc18f222b9.jpg
http://farm5.static.flickr.com/4016/4357336216_7e62130dd2.jpg
http://farm4.static.flickr.com/3104/3271790793_9a46d74caa.jpg
http://a.rgbimg.com/cache1oeWDH/users/c/cr/crisderaud/300/mqZ3NGa.jpg
http://farm3.static.flickr.com/2568/4149168757_2015e7fd5c.jpg
http://assets.nydailynews.com/img/2010/09/06/alg_school_trash.jpg
http://farm3.static.flickr.com/2501/3685020840_2e6c6a264f.jpg
http://farm6.static.flickr.com/5027/5549909139_3b6bef5a8e.jpg
http://farm4.static.flickr.com/3577/3322597705_6a385ee56b.jpg
http://farm4.static.flickr.com/3421/3318134726_be20c9ed0c.jpg
http://farm1.static.flickr.com/77/191259946_2af67f29a3.jpg
http://farm5.static.flickr.com/4063/4615404660_0ef86a3341.jpg
http://farm3.static.flickr.com/2030/2215762724_06da4f2151.jpg
http://blogs.20minutos.es/cronicaverde/files/Basura.jpg
http://2.bp.blogspot.com/_Jmx83BR_fkc/Slz9vNgnAdI/AAAAAAAAABY/gPyTKWRfqOk/s320/Trash+Pile.JPG
http://farm3.static.flickr.com/2186/2159697079_5d74e31294.jpg
http://farm1.static.flickr.com/185/368260553_dbd3d37d51.jpg
http://farm3.static.flickr.com/2137/4511091441_4198579663.jpg
http://farm6.static.flickr.com/5018/5465340201_6049874499.jpg
http://4.bp.blogspot.com/_0yRSytNYj4E/TIBR492asRI/AAAAAAAAAco/hyOZ40qLe4A/s320/Boston+-+272_trash_pile_final_SM.jpg
http://farm1.static.flickr.com/41/92953808_3c2145a0b3.jpg
http://nofrakkingconsensus.files.wordpress.com/2011/02/trash_pile.jpg
http://farm4.static.flickr.com/3114/2714870864_dd3eb1a98d.jpg
http://farm4.static.flickr.com/3337/3671727403_59a9b5c494.jpg
http://farm4.static.flickr.com/3528/3945064081_d17aab565e.jpg
http://thumb19.webshots.net/t/54/54/6/98/47/517769847FGlBfg_th.jpg
http://farm6.static.flickr.com/5299/5407776363_00e6313006.jpg
http://farm1.static.flickr.com/174/443075622_258333e06f.jpg
http://farm4.static.flickr.com/3095/2799378711_14f842e129.jpg
http://farm3.static.flickr.com/2397/3538252128_834a3c67a4.jpg
http://www.californiaherps.com/images/herping/trashpile.jpg
http://farm4.static.flickr.com/3559/3809107494_3238a6c1e5.jpg
http://farm2.static.flickr.com/1191/1399895204_4e22549cfc.jpg
http://farm4.static.flickr.com/3134/3207022741_4ef186c322.jpg
http://farm3.static.flickr.com/2208/1583194200_65b416c5fd.jpg
http://farm1.static.flickr.com/117/297666174_c259563845.jpg
http://farm5.static.flickr.com/4070/4376052986_539b970449.jpg
http://campusrec.sc.edu/Campus_Rec_Photos/ORec_photos/2010/spring2010/Thumbs/river_cleanup_trash_pile_thumb.jpg
http://www.ssqq.com/stories/images/day%20in%20court%2011%20950.jpg
http://farm3.static.flickr.com/2760/4202186701_71e839f3ae.jpg
http://farm4.static.flickr.com/3222/2749581788_7d4576dbba.jpg
http://farm2.static.flickr.com/1007/1407280584_05f5c07322.jpg
http://farm2.static.flickr.com/1096/1484425300_bc24e459ed.jpg
http://farm4.static.flickr.com/3154/2715422356_081e6546b2.jpg
http://farm5.static.flickr.com/4040/4601336499_5a2cba8e80.jpg
http://assets.nydailynews.com/img/2011/01/01/amd_trash_pile.jpg
http://greenpropertypreservation.com/images/picture_of_trash_pile.jpg
http://farm2.static.flickr.com/1262/5097679167_30be982532.jpg
http://farm2.static.flickr.com/1133/1008623745_d3ea6e932a.jpg
http://farm3.static.flickr.com/2050/2189642998_810ed8ec1a.jpg
http://farm4.static.flickr.com/3151/2592740458_a47664ef60.jpg
http://farm1.static.flickr.com/52/106114757_bec2c5557f.jpg
http://farm4.static.flickr.com/3536/3460520963_962558ecf6.jpg
http://farm1.static.flickr.com/47/147915229_0d4b35cf6f.jpg
http://pakistaniat.com/images/Image0136.jpg
http://farm4.static.flickr.com/3130/2846542828_3d092ea0d7.jpg
http://farm3.static.flickr.com/2360/2105614953_73d5da43fa.jpg
http://farm3.static.flickr.com/2526/3692107563_9b02184edc.jpg
http://farm5.static.flickr.com/4095/4747057180_b938e98952.jpg
http://farm1.static.flickr.com/23/30447698_58a8780194.jpg
http://farm5.static.flickr.com/4104/5606008181_1bf134cdb7.jpg
http://farm6.static.flickr.com/5251/5407677695_d8b657a48a.jpg
http://farm5.static.flickr.com/4049/4538935219_3d47823bba.jpg
http://farm5.static.flickr.com/4027/4535203398_71680103ac.jpg
http://farm5.static.flickr.com/4018/4520669038_0bb80b53ff.jpg
http://farm4.static.flickr.com/3166/2715607535_34c669ea49.jpg
http://farm3.static.flickr.com/2680/4189694355_f431d3a396.jpg
http://www.pulitzer.org/imported-data/year/2007/explanatory-reporting/works/garbage.jpg
http://farm4.static.flickr.com/3022/2662269659_d99990f41f.jpg
http://www.sbglassfactory.com/trash.JPG
http://farm3.static.flickr.com/2395/2174525667_692fff7dd3.jpg
http://farm4.static.flickr.com/3331/3671718715_1e20e4a496.jpg
http://farm3.static.flickr.com/2307/2348359080_7ee7d98851.jpg
http://4.bp.blogspot.com/_w4OD1sK88ts/THchVVTpsKI/AAAAAAAADaw/CoJfjffG_Rg/s1600/Loveseat%2B(3).JPG
http://farm4.static.flickr.com/3135/2389949960_6bcb968612.jpg
http://farm1.static.flickr.com/60/172182566_194ffe8a7f.jpg
http://media2.natchezdemocrat.com/img/croppedphotos/2008/10/15/101608trash_SV_WEB_t725.jpg?73b5efe6b9ed4537b6cce14d6119b593814e8e5c
http://farm2.static.flickr.com/1073/1089465327_d630d5e8af.jpg
http://farm2.static.flickr.com/1440/539137960_10274a15ca.jpg
http://farm4.static.flickr.com/3224/2617666025_d111c0cc79.jpg
http://farm2.static.flickr.com/1345/5179949297_4c4d83b394.jpg
http://farm6.static.flickr.com/5166/5297779087_c52856d129.jpg
http://farm6.static.flickr.com/5046/5353779703_b0e731e876.jpg
http://farm1.static.flickr.com/229/448696814_040f9ed65b.jpg
http://farm3.static.flickr.com/2202/2281136888_945c553325.jpg
http://farm3.static.flickr.com/2114/1764824891_c7be7f7186.jpg
http://farm5.static.flickr.com/4098/4946933320_38ccdd30be.jpg
http://farm3.static.flickr.com/2413/1896611950_94fb73d7d4.jpg
http://farm4.static.flickr.com/3001/2798778956_68a4c89f80.jpg
http://farm3.static.flickr.com/2154/2096848518_96ff2b0b8c.jpg
http://farm6.static.flickr.com/5299/5537031683_339a294662.jpg
http://farm6.static.flickr.com/5062/5606126883_4b21a59f9b.jpg
http://www.royalgazette.com/storyimage/RG/20110112/NEWS01/701129993/AR/AR-701129993.jpg&q=100&maxw=550&maxh=500
http://www.dirtrider.net/natra/pics/trashday1.jpg
http://farm3.static.flickr.com/2669/3870542377_f9ff9fbf1e.jpg
http://farm3.static.flickr.com/2722/4319415881_ef24738301.jpg
http://farm3.static.flickr.com/2263/2390996788_d9109baaa8.jpg
http://farm4.static.flickr.com/3432/3987947066_421d334238.jpg
http://farm3.static.flickr.com/2266/1543300140_1c44bb4367.jpg
http://farm6.static.flickr.com/5298/5488322521_25eb337038.jpg
http://www.worldofstock.com/slides/PEN1366.jpg
http://sfist.com/attachments/sfist_rita/garbage712.jpg
http://farm1.static.flickr.com/76/192118656_195cd9da8b.jpg
http://farm4.static.flickr.com/3248/2591100771_a3477ff422.jpg
http://farm3.static.flickr.com/2172/3681899338_ea21a468c8.jpg
http://www.tienchiu.com/wp-content/gallery/animals/monkey_trash.jpg
http://farm5.static.flickr.com/4065/4296123789_7034f82a46.jpg
http://farm4.static.flickr.com/3417/3228347853_85eec5de10.jpg
http://www.ulyssestears.com/Pix/Zagreb/GarbagePile.jpg
http://farm1.static.flickr.com/106/285300502_171ae3ecec.jpg
http://www.cornerstoneworld.net/lakecountry/life/photos/neworleans06/trashpile2.jpg
http://farm6.static.flickr.com/5172/5402488829_155c944cb9.jpg
http://farm1.static.flickr.com/3/10497663_bcc8eef91d.jpg
http://farm2.static.flickr.com/1220/1146182380_ca1715ef89.jpg
http://media.rhizome.org/blog/3493/monit2.jpg
http://farm4.static.flickr.com/3151/2753560172_6dec4cf417.jpg
http://www.dirtrider.net/natra/pics/trashday2.jpg
http://joeydevilla.com/wordpress/wp-content/uploads/2004/11/bermondsey1_preview.jpg
http://farm4.static.flickr.com/3597/3672697880_3b1b28a709.jpg
http://i228.photobucket.com/albums/ee291/Jeffc12/008.jpg
http://farm1.static.flickr.com/88/225017261_d5c606fbec.jpg
http://api.ning.com/files/7gutzR5vdyfk8nRhdhtUn07OgCJhhqPsuDmdcKEdRl6gy*FLt7FaHVK8hhPECEErXkuJlSYhYxxMn6CW5FQ7WsnnoISP64K7/hraimwatchagoningtodoaboutthisburnpile.JPG
http://farm4.static.flickr.com/3123/2706848633_ff599034bc.jpg
http://farm1.static.flickr.com/66/218482472_468a39fdb5.jpg
http://farm1.static.flickr.com/22/25389714_fd92fba5c6.jpg
http://farm4.static.flickr.com/3377/3444403619_204652bb3b.jpg
http://farm5.static.flickr.com/4098/4893098087_d8666b7f94.jpg
http://farm6.static.flickr.com/5127/5318765014_0f1d8aa799.jpg
http://thumb18.shutterstock.com/thumb_small/5678/5678,1274005911,1/stock-photo-amsterdam-the-netherlands-may-garbage-pile-up-during-the-week-long-workers-strike-that-ended-53167363.jpg
http://farm1.static.flickr.com/43/122325862_eca63271b7.jpg
http://farm4.static.flickr.com/3570/3521233754_39acc90020.jpg
http://www.instablogsimages.com/images/2008/06/23/19594_2_468_Btuks_1333.jpg
http://farm4.static.flickr.com/3597/3417739372_c715ca9737.jpg
http://farm1.static.flickr.com/53/129200799_f4ce61db39.jpg
http://farm4.static.flickr.com/3652/3577089622_8efcb8fc5e.jpg
http://www.uclan.ac.uk/schools/built_natural_environment/research/waste_management/media/waste_pile.jpg
http://farm4.static.flickr.com/3187/2653702826_43001025ea.jpg
http://farm1.static.flickr.com/96/217168138_e73b41b74e.jpg
http://farm1.static.flickr.com/141/398870062_8f9175d6ec.jpg
http://farm6.static.flickr.com/5177/5527359048_bb1c6b639c.jpg
http://farm4.static.flickr.com/3499/3748944449_65edf42406.jpg
http://farm4.static.flickr.com/3176/3049487790_60f3f0dee2.jpg
http://farm3.static.flickr.com/2584/4186850619_7816c121e2.jpg
http://farm1.static.flickr.com/36/85088841_517e84f49c.jpg
http://dev.priorartisans.com/paul/katrina/medium/P3180050.jpg
http://farm1.static.flickr.com/172/469801408_93808fa112.jpg
http://farm2.static.flickr.com/1103/644145498_af462e56c5.jpg
http://farm1.static.flickr.com/217/499926355_6e1b85da5a.jpg
http://farm2.static.flickr.com/1337/766002317_3933f46f2b.jpg
http://thumb11.shutterstock.com/thumb_small/77235/77235,1262976649,2/stock-photo-trash-pile-of-discarded-computer-parts-circuit-boards-and-memory-modules-all-logos-trademark-44050366.jpg
http://farm2.static.flickr.com/1291/5183595460_4eba070433.jpg
http://cbsnewyork.files.wordpress.com/2011/01/trash1.jpg?w=420
http://farm4.static.flickr.com/3094/2611692104_b3a31543e2.jpg
http://4.bp.blogspot.com/_VrH8q-U2C4o/TVGzTa4AvoI/AAAAAAAADaM/WSoMwVxkCFs/s1600/trash+pile.jpg
http://farm1.static.flickr.com/41/85100492_0b53b229f5.jpg
http://galapagos2009.files.wordpress.com/2009/11/20090917_pobay_1.jpg
http://farm1.static.flickr.com/213/474140769_5c364e030c.jpg
http://upload.wikimedia.org/wikipedia/commons/8/8b/Pile_of_trash_2.jpg
http://farm3.static.flickr.com/2724/4429515440_b9431a5250.jpg
http://www.kuksoolwoncl.com/images/events/adopt_a_highway/4-10-10/trash_pile.jpg
http://farm3.static.flickr.com/2786/4427482328_6fd1f7dc46.jpg
http://farm1.static.flickr.com/54/136221129_68abb3a1e8.jpg
http://www.gazette.net/images/2009_0603/trashmg060509w_rgbb.jpg
http://farm4.static.flickr.com/3557/3390774570_0346880067.jpg
http://farm3.static.flickr.com/2724/4314924450_74f0347b56.jpg
http://static2.bigstockphoto.com/thumbs/2/4/2/large2/2425315.jpg
http://farm1.static.flickr.com/41/80624854_92cfee8de3.jpg
http://myloupe.com/disp_thumb_images/414/thumbnail/147299.jpg
http://farm4.static.flickr.com/3175/2635852769_5e4a1df692.jpg
http://rmltman.files.wordpress.com/2009/04/tw-trash-in-desert-grube-51009.jpg
http://farm1.static.flickr.com/8/12651264_5558754ebc.jpg
http://farm3.static.flickr.com/2083/1994126506_7de9b53ab0.jpg
http://farm3.static.flickr.com/2731/4276334491_e1c284bde7.jpg
http://farm1.static.flickr.com/85/223460206_25242e5170.jpg
http://farm1.static.flickr.com/22/31971790_1f04269d3d.jpg
http://farm4.static.flickr.com/3094/2876249973_d789a710fd.jpg
http://marinedebris.noaa.gov/photos/anacostia/400/anacostia400e.jpg
http://farm5.static.flickr.com/4058/4561449408_c61953d6f5.jpg
http://farm3.static.flickr.com/2449/4066290806_777af0621e.jpg
http://farm1.static.flickr.com/35/94170520_039997e770.jpg
http://farm4.static.flickr.com/3441/3956858224_7a84a1eb95.jpg
http://image.shutterstock.com/display_pic_with_logo/62553/62553,1251313696,3/stock-photo-a-very-large-trash-pile-at-a-salvage-yard-illustrates-the-throw-away-society-35954872.jpg
http://farm6.static.flickr.com/5181/5564700359_22881264d4.jpg
http://www.aacleanup.com/images/trucks_062.jpg
http://farm2.static.flickr.com/1329/1496807107_626f322390.jpg
http://farm4.static.flickr.com/3231/2899422595_526ab3e560.jpg
http://farm3.static.flickr.com/2025/2322006425_372015ceae.jpg
http://farm3.static.flickr.com/2459/3741514124_06b006012b.jpg
http://farm4.static.flickr.com/3311/3345469033_6f6d6e800a.jpg
http://farm1.static.flickr.com/153/377680999_8ee324239c.jpg
http://farm1.static.flickr.com/32/66333176_29ddb71fb9.jpg
http://farm4.static.flickr.com/3181/3088289752_14cb1a7e95.jpg
http://farm2.static.flickr.com/1259/1425201238_f35195d59f.jpg
http://farm2.static.flickr.com/1260/1416796048_1528792a7d.jpg
http://farm4.static.flickr.com/3200/2726365634_06fb955ed9.jpg
http://farm5.static.flickr.com/4073/4787187627_ce02ec6bb6.jpg
http://farm1.static.flickr.com/111/312903126_6a3e4a89e2.jpg
http://farm4.static.flickr.com/3388/3312546244_6246a8392f.jpg
http://farm3.static.flickr.com/2219/2064113468_2ca64840c4.jpg
http://farm3.static.flickr.com/2269/2359577578_b37bd10cc5.jpg
http://farm4.static.flickr.com/3508/3927199332_b2be6b57d7.jpg
http://farm5.static.flickr.com/4078/4746442887_5759909739.jpg
http://farm3.static.flickr.com/2374/2429827733_a32c2c18c0.jpg
http://farm5.static.flickr.com/4142/4748740229_c2819476f5.jpg
http://farm5.static.flickr.com/4106/5013174910_f247fae569.jpg
http://3.bp.blogspot.com/-zfH5ybkLfoM/TWNHata3FhI/AAAAAAAAAAk/ng5_-T_IPq0/s1600/trash2.jpg
http://farm5.static.flickr.com/4083/5024442642_bb66a002fa.jpg
http://farm4.static.flickr.com/3076/2728868439_2079cb8d2c.jpg
http://farm1.static.flickr.com/30/59290726_7ef941f43e.jpg
http://farm1.static.flickr.com/89/276847069_40e8205db2.jpg
http://farm1.static.flickr.com/219/515498367_0fb412e692.jpg
http://www.pixelmap.com/images/Scenic/world/sl_malaysia_66.jpg
http://farm1.static.flickr.com/55/150730295_c6b2e89145.jpg
http://farm4.static.flickr.com/3092/2896129839_6c7eef5e52.jpg
http://farm4.static.flickr.com/3279/2628861362_eea140ba6a.jpg
http://farm2.static.flickr.com/1030/605004206_56b4c181df.jpg
http://farm1.static.flickr.com/50/133635230_ada5abb358.jpg
http://farm4.static.flickr.com/3539/4560944992_4ff36b3656.jpg
http://farm1.static.flickr.com/118/291340560_3858577d2b.jpg
http://farm1.static.flickr.com/101/253791461_dd96f44525.jpg
http://farm5.static.flickr.com/4107/5028611379_d8cc690492.jpg
http://farm5.static.flickr.com/4060/4423930593_b23fb02c4c.jpg
http://farm2.static.flickr.com/1224/4603910614_fd7a571669.jpg
http://farm4.static.flickr.com/3135/2566558958_fb2c197724.jpg
http://farm3.static.flickr.com/2433/3566485125_ab1abc9ee5.jpg
http://farm4.static.flickr.com/3502/4051321444_d8bff24a39.jpg
http://farm5.static.flickr.com/4131/5019772429_2b2ea2757d.jpg
http://farm3.static.flickr.com/2135/2104655954_b4f98b95b0.jpg
http://farm4.static.flickr.com/3040/3076879217_7c008ed2cc.jpg
http://farm4.static.flickr.com/3287/2778698421_538ef47eb9.jpg
http://farm4.static.flickr.com/3410/4614785929_29d32f81ac.jpg
http://theartofeveryday.files.wordpress.com/2010/09/jk-trash-pile.jpg
http://www2.tbo.com/exposure/ar/385/255/2009/12/01/24564_urns-found.jpg
http://media.apnonline.com.au/img/media/images/2011/01/14/RMB_15-01-2011_ROP_08_ROK140111cleanup-a2_t325.jpg
http://farm5.static.flickr.com/4013/4487534205_c2b9bb6e22.jpg
http://www.guanica.us/guanica/wp-content/uploads/2010/03/trashPile.jpg
http://www.thegreatbasininstitute.org/wp-content/uploads/2010/12/Sidewinder-in-trash-pile_small.jpg
http://farm4.static.flickr.com/3226/3085941372_86effefd66.jpg
http://farm3.static.flickr.com/2668/3678486849_af5d82fbb1.jpg
http://farm5.static.flickr.com/4144/5069076700_b31785a792.jpg
http://farm4.static.flickr.com/3597/3550949006_c008954692.jpg
http://farm3.static.flickr.com/2558/3868316252_b8c84f85d8.jpg
http://farm5.static.flickr.com/4082/4942838999_2b9a3ac664.jpg
http://farm3.static.flickr.com/2210/2380999678_2277131b06.jpg
http://www.thelmagazine.com/images/blogimages/2010/01/20/1264018973-trash_pile.jpg
http://farm3.static.flickr.com/2269/1896746084_bed2393057.jpg
http://farm4.static.flickr.com/3189/2379471538_fb005eb3fc.jpg
http://farm5.static.flickr.com/4061/4282924707_37ddc48447.jpg
http://davaotoday.com/main/wp-content/photouploads/mountapotrash.jpg
http://farm1.static.flickr.com/216/506942218_9fff235ebb.jpg
http://farm3.static.flickr.com/2613/3678117115_7d6b6e7aef.jpg
http://farm3.static.flickr.com/2130/2147563653_c0cb5ca01f.jpg
http://farm3.static.flickr.com/2303/2232287854_4940b19de2.jpg
http://farm5.static.flickr.com/4053/4589661172_9445c0abd9.jpg
http://www.johnlund.com/images/Landfill-garbage-pile-waste.jpg
http://farm4.static.flickr.com/3620/3614825283_52176b2307.jpg
http://farm4.static.flickr.com/3289/2876140116_56562b2797.jpg
http://www.mentalfloss.com/blogs/wp-content/uploads/2009/12/dailyrecord-trash.jpg
http://farbucks.typepad.com/photos/uncategorized/2007/12/03/origami_013_2.jpg
http://farm3.static.flickr.com/2554/4200524573_863d7a0314.jpg
http://farm3.static.flickr.com/2313/2331480967_341a25a4e4.jpg
http://farm2.static.flickr.com/1243/4595173002_42faec9a3c.jpg
http://farm3.static.flickr.com/2158/2069311434_ac1cb8c5ea.jpg
http://farm3.static.flickr.com/2582/3910846226_5aaf65e732.jpg
http://farm4.static.flickr.com/3482/4044237363_eea3a8f8be.jpg
http://farm4.static.flickr.com/3622/3391650978_8e521a8a94.jpg
http://www.burnbarrel.org/graphics/farm_pile_corn2.JPG
http://farm4.static.flickr.com/3211/3091337860_825b7cf547.jpg
http://www.gfbccary.org/missions/mmat/images/trashPile.jpg
http://www.scotiasurfer.com/wp-content/uploads/2009/06/coastal-access-committee-cow-bay-clean-up.jpg
http://farm6.static.flickr.com/5287/5324383275_ce6626714a.jpg
http://farm3.static.flickr.com/2753/4377373538_55ccc66c6a.jpg
http://farm5.static.flickr.com/4054/4504684697_bebfa47638.jpg
http://farm4.static.flickr.com/3265/3145160327_b7898938a5.jpg
http://acidcow.com/pics/20091029/amazing_trash_art_by_bernard_pras_11.jpg
http://farm3.static.flickr.com/2459/3875507377_ffef1e6cd4.jpg
http://4.bp.blogspot.com/_cecbxkDCxIw/Rs4QHJ8P-PI/AAAAAAAAACU/0VODQEZoLgA/s320/TrashPile.JPG
http://farm5.static.flickr.com/4011/4661170159_33454e6374.jpg
http://www.myconfinedspace.com/wp-content/uploads/2007/06/comming-soon-green-forest.jpg
http://farm5.static.flickr.com/4079/4749318910_824eaaf42b.jpg
http://farm2.static.flickr.com/1188/1316027225_92399ccdde.jpg
http://2.bp.blogspot.com/_YniKlbPh29k/ScXoMyyjx3I/AAAAAAAADug/uTj_7micb5Y/s400/river_of_garbage_citarum_river_id_4.jpg
http://news.bbc.co.uk/media/images/44341000/jpg/_44341061_trashpileafp416.jpg
http://farm1.static.flickr.com/28/46897589_3f4ea548cc.jpg
http://farm4.static.flickr.com/3040/3013756947_c0dce6b439.jpg
http://files.clustershot.com/files/photos/large/533299.jpg
http://farm3.static.flickr.com/2277/2104714861_6c52779251.jpg
http://farm4.static.flickr.com/3633/4555729994_cd205a873c.jpg
http://farm4.static.flickr.com/3017/2875337239_085e4cf50d.jpg
http://farm1.static.flickr.com/11/12573454_f3f8e00598.jpg
http://www.tate.org.uk/tateetc/issue9/images/emblemearthly_dirtywhitetrash.jpg
http://farm2.static.flickr.com/1025/4601336307_2752144a01.jpg
http://farm3.static.flickr.com/2216/2249538891_3afce8bd34.jpg
http://farm2.static.flickr.com/1302/532160302_b66083e242.jpg
http://farm3.static.flickr.com/2431/3740027008_3a4cf13612.jpg
http://farm5.static.flickr.com/4030/4411029600_eef30cb4e9.jpg
http://farm1.static.flickr.com/174/428093107_d1c9c20873.jpg
http://farm1.static.flickr.com/5/5625262_88d6226f7b.jpg
http://farm5.static.flickr.com/4124/5096535772_0dd61055ab.jpg
http://www.bettersouth.org/images/nola06/06.0319.bluehouse.jpg
http://farm4.static.flickr.com/3058/2467817508_4a10fd9dc0.jpg
http://farm5.static.flickr.com/4005/4460035046_f0f8254857.jpg
http://farm1.static.flickr.com/32/51374408_5b3d9692b6.jpg
http://farm3.static.flickr.com/2294/2313829408_a874abf68a.jpg
http://farm1.static.flickr.com/49/150730367_a8a17c5b80.jpg
http://farm4.static.flickr.com/3133/2707710879_dbd5cd8f7f.jpg
http://greenupgrader.com/files/2009/05/trashpile.jpg
http://www.nydailynews.com/img/2011/01/03/450x310-alg_trash_still.jpg
http://farm3.static.flickr.com/2566/4204482372_c1709ac1ea.jpg
http://farm3.static.flickr.com/2302/2332448106_58c11ccb69.jpg
http://farm1.static.flickr.com/26/47452704_01271841a1.jpg
http://farm3.static.flickr.com/2519/4117849021_cc3f4e309f.jpg
http://farm6.static.flickr.com/5057/5468907764_fd285e96d0.jpg
http://farm4.static.flickr.com/3060/3008411193_246f7e9478.jpg
http://farm4.static.flickr.com/3483/3809151930_b146c2954d.jpg
http://farm3.static.flickr.com/2387/2488228459_d7ef91f146.jpg
http://farm2.static.flickr.com/1130/1043940905_3741439db0.jpg
http://www.phidelity.com/blog/wp-content/uploads/2010/08/p_1600_1200_DDDE329B-FB38-4E8C-A30E-275B4BADF09B.jpeg
http://farm4.static.flickr.com/3027/2627421795_ce7d29e50b.jpg
http://planetgreen.discovery.com/tv/wasted/images/2009-04/annabelle-sisterhood-trash-sm.jpg
http://gothamist.com/attachments/arts_jen/trashpark0810.jpg
http://i242.photobucket.com/albums/ff125/lightsluvr/Demoday2.jpg
http://www.datenform.de/blog/uploaded_images/igotyousomething-789467.jpg
http://farm4.static.flickr.com/3157/2872583204_072d957b13.jpg
http://farm4.static.flickr.com/3313/3199800939_9aee04c8a1.jpg
http://farm6.static.flickr.com/5139/5408631269_d0cf246fd8.jpg
http://farm4.static.flickr.com/3028/2973100752_26c1ec08fb.jpg
http://farm3.static.flickr.com/2594/4122686215_75d5485ff4.jpg
http://farm4.static.flickr.com/3638/3499319958_a38925d955.jpg
http://blogs.suntimes.com/inauguration/Trash.JPG
http://farm1.static.flickr.com/69/195950711_7735b94c69.jpg
http://farm4.static.flickr.com/3421/3315423658_0bd9723aef.jpg
http://farm2.static.flickr.com/1120/3353400158_70a268a629.jpg
http://images.acclaimimages.com/_gallery/_TN/0001-0510-0216-1158_TN.jpg
http://farm6.static.flickr.com/5017/5540935023_3763838071.jpg
http://farm6.static.flickr.com/5058/5407927411_ce514a8263.jpg
http://farm1.static.flickr.com/22/27625098_2ddb1b3a20.jpg
http://farm1.static.flickr.com/185/461585854_48c743a4fc.jpg
http://media.indypgh.org/uploads/2007/07/dsc00631.jpg
http://farm1.static.flickr.com/121/295043944_87cf49d250.jpg
http://farm4.static.flickr.com/3108/3092741521_4bc054a231.jpg
http://farm4.static.flickr.com/3518/3261560647_24dcb7f9cc.jpg
http://media.thestar.topscms.com/images/2a/d3/3aba1984406c99e53eadee49c5f7.jpeg
http://farm4.static.flickr.com/3585/3613546920_b49ee986ef.jpg
http://farm4.static.flickr.com/3200/3069770649_82ea724ed1.jpg
http://pff.hostkansas.com/pffimages3/6spd_install_155.jpg
http://farm3.static.flickr.com/2708/4470476308_4cef9f7de9.jpg
http://farm4.static.flickr.com/3021/2894151613_bc4f7666fa.jpg
http://farm1.static.flickr.com/45/112302460_c7e8c55743.jpg
http://farm5.static.flickr.com/4073/4805587832_55fc000c71.jpg
http://www.burnbarrel.org/graphics/farm_pile_corn.JPG
http://farm1.static.flickr.com/45/149851177_94c6c57186.jpg
http://farm4.static.flickr.com/3187/2354153952_34ebaf7fbb.jpg
http://farm1.static.flickr.com/139/318337234_53bedcf918.jpg
http://www.treehugger.com/trash%20pile.jpg
http://farm4.static.flickr.com/3662/3480622134_1e4bdfbc3f.jpg
http://farm4.static.flickr.com/3138/2655160512_95b322f995.jpg
http://farm4.static.flickr.com/3381/3187564023_3d4119c11c.jpg
http://s.wsj.net/media/0107NYPOW_11_J.jpg
http://farm2.static.flickr.com/1176/1303937928_9ec3137a5d.jpg
http://farm4.static.flickr.com/3320/3542331684_7dacb5cf33.jpg
http://www.findmall.com/addon.php?17,module=embed_images,url=http%3A%2F%2Fcanadianmetaldetecting.com%2Fuserpix%2F964_ELDOBCH1_1.jpg
http://i101.photobucket.com/albums/m67/hoopty388/cleanout/Cleanedoutonebldg.jpg
http://farm3.static.flickr.com/2538/3858138263_7e391b233f.jpg
http://www.fijitimes.com/images/artpics/92051.jpg
http://energycareelectric.com/wp-content/uploads/2009/09/trash-pile-150x150.jpg
http://vorige.nrc.nl/multimedia/dynamic/00304/napels_304934e.jpg
http://farm1.static.flickr.com/85/277559014_8ec3ad4520.jpg
http://farm3.static.flickr.com/2595/3874071675_c56a49d148.jpg
http://www.beneficialrc.com/images/cellphone-pile_mlcp.jpg
http://farm4.static.flickr.com/3014/2307482839_ff3cf13446.jpg
http://www.aacleanup.com/images/work_018.jpg
http://farm5.static.flickr.com/4135/4854901532_70db386777.jpg
http://farm4.static.flickr.com/3509/3245761575_0934a59d57.jpg
http://farm3.static.flickr.com/2540/4051447867_597fe3d805.jpg
http://25.media.tumblr.com/tumblr_lhdrb8T6Pj1qz5q0go1_500.jpg
http://farm5.static.flickr.com/4043/4459246749_bab4fc56d3.jpg
http://farm5.static.flickr.com/4015/4428549148_7aebbe75f1.jpg
http://farm1.static.flickr.com/44/152210644_7c63dc8e91.jpg
http://farm3.static.flickr.com/2340/2162328944_a9b07169ac.jpg
http://farm4.static.flickr.com/3229/2838061784_27978cae72.jpg
http://farm5.static.flickr.com/4019/4255622790_9d6ecafa72.jpg
http://farm1.static.flickr.com/4/5084296_dffde850b3.jpg
http://farm4.static.flickr.com/3005/2826863136_a32855386c.jpg
http://farm1.static.flickr.com/30/51774040_4d4b4cf21f.jpg
http://farm5.static.flickr.com/4062/4370073052_f6bfff3828.jpg
http://farm1.static.flickr.com/53/136335260_1e12832ecc.jpg
http://farm4.static.flickr.com/3242/3025177574_cb7331c455.jpg
http://farm1.static.flickr.com/99/277873231_25667b88bc.jpg
http://farm4.static.flickr.com/3056/2312791598_4031ac9bc1.jpg
http://farm5.static.flickr.com/4091/5103833828_977837f29d.jpg
http://media.thestar.topscms.com/images/20/c4/259e680c4cd7b98f95e85b333c9c.jpeg
http://farm3.static.flickr.com/2382/2180429060_e6c5ef976e.jpg
http://farm1.static.flickr.com/52/142785995_280427c5ce.jpg
http://farm4.static.flickr.com/3298/3615396374_129267e44a.jpg
http://farm3.static.flickr.com/2396/1693056229_e7390f289a.jpg
http://farm3.static.flickr.com/2553/3883932004_7f8d117de9.jpg
http://i525.photobucket.com/albums/cc337/minigtr/Trash_pile.jpg
http://farm1.static.flickr.com/34/66333173_9cfd070c41.jpg
http://farm1.static.flickr.com/110/276917518_9a27499075.jpg
http://www.toddjayleonard.com/Todd_Jay_Leonard/Trash_laws_here_are_nothing_compared_to_Japan,_Blog_Archives_files/shapeimage_14.png
http://farm2.static.flickr.com/1174/1450872525_db096a9273.jpg
http://farm4.static.flickr.com/3112/2727267378_e7d19b9300.jpg
http://farm3.static.flickr.com/2210/2273082441_459eb71d30.jpg
http://farm4.static.flickr.com/3386/3270934476_7caa16f355.jpg
http://farm1.static.flickr.com/119/300491110_894044e21a.jpg
http://farm4.static.flickr.com/3027/2549618247_303d9bb9c1.jpg
http://farm1.static.flickr.com/202/492453539_69d8e691f0.jpg
http://farm3.static.flickr.com/2591/3731120075_50c3a3e4d7.jpg
http://farm3.static.flickr.com/2009/2141356569_e74b1deba6.jpg
http://2.bp.blogspot.com/_CCSOdz0mMJE/SCCrcS0SjkI/AAAAAAAAAU0/BQt72zxY508/s400/trash+pile+up.jpg
http://farm3.static.flickr.com/2389/2409583473_5dc3760d05.jpg
http://25.media.tumblr.com/tumblr_l9y8nq1VBY1qbyyw4o1_500.jpg
http://farm4.static.flickr.com/3309/3558935521_3ce06cb22c.jpg
http://farm3.static.flickr.com/2473/3731914714_675177090b.jpg
http://farm4.static.flickr.com/3056/3025177474_9316bc2e6b.jpg
http://farm3.static.flickr.com/2176/2226550905_311d8ac8dd.jpg
http://farm5.static.flickr.com/4067/4630052999_c214040963.jpg
http://farm3.static.flickr.com/2248/2340442686_85229fe997.jpg
http://farm1.static.flickr.com/188/410342564_ea460c3481.jpg
http://farm4.static.flickr.com/3057/3020719348_67b34b399d.jpg
http://farm5.static.flickr.com/4009/4547366457_6e69b0ccc3.jpg
http://farm5.static.flickr.com/4142/5435315337_44598b3185.jpg
http://farm2.static.flickr.com/1180/861241512_0ef4738d84.jpg
http://farm1.static.flickr.com/230/498062641_ad80675fe5.jpg
http://farm3.static.flickr.com/2330/2226596813_8c092e4a82.jpg
http://farm3.static.flickr.com/2505/4040606986_ec9d2735e7.jpg
http://farm3.static.flickr.com/2062/2341615051_ac2f737d91.jpg
http://farm6.static.flickr.com/5228/5565283160_4396393f4a.jpg
http://farm3.static.flickr.com/2260/2167327399_6f80fbdeb8.jpg
http://farm4.static.flickr.com/3334/3516507743_401baf4995.jpg
http://farm4.static.flickr.com/3222/2591912805_625c19959f.jpg
http://farm4.static.flickr.com/3373/3421105670_6095e8a038.jpg
http://farm5.static.flickr.com/4028/4391401209_dba8cede1b.jpg
http://farm4.static.flickr.com/3042/2648734066_b92658d121.jpg
http://farm3.static.flickr.com/2802/4123456154_838f453318.jpg
http://farm4.static.flickr.com/3316/3295244269_d5768cf959.jpg
http://farm5.static.flickr.com/4002/4579338917_56995a1c3b.jpg
http://farm4.static.flickr.com/3047/3039046817_3d6d2569b4.jpg
http://farm6.static.flickr.com/5137/5414444158_350c97a97a.jpg
http://farm2.static.flickr.com/1153/5161575538_64c76783f0.jpg
http://farm3.static.flickr.com/2019/2227339120_b9aacb5296.jpg
http://farm5.static.flickr.com/4064/4279815476_5ff597f98c.jpg
http://farm3.static.flickr.com/2297/2416785905_a92d8970e0.jpg
http://www.ecologicalhope.org/wp-content/uploads/2008/08/debris-pile-on-kamilo-beach-hawaii-noaa-ap-photo.png
http://farm6.static.flickr.com/5007/5302459908_d4a6f3009a.jpg
http://www.uniqueinvestmentgroup.com/images/hometheater/IMG_3358.jpg
http://farm4.static.flickr.com/3530/3456915919_77bbef0b53.jpg
http://lh6.ggpht.com/_k2hbP6QPYiM/ShZlwtoJ2vI/AAAAAAAACPU/J6diW-DCnyk/008.JPG
http://farm6.static.flickr.com/5094/5466988196_2d06ed37cb.jpg
http://www.kevin-everett.com/wp-content/uploads/2007/12/trash_pile.jpg
http://farm3.static.flickr.com/2682/4079060731_df69421bf5.jpg
http://farm1.static.flickr.com/107/290325692_32025a54de.jpg
http://farm1.static.flickr.com/122/292599646_5e034d91f0.jpg
http://farm3.static.flickr.com/2585/4106064879_5e2ed94703.jpg
http://farm3.static.flickr.com/2795/4457600414_a9b826e1b8.jpg
http://farm2.static.flickr.com/1075/621075076_38227f9dca.jpg
http://farm4.static.flickr.com/3074/2952294414_22ab9291d4.jpg
http://www.kuksoolwoncl.com/images/events/adopt_a_highway/4-10-10/trash_pile2.jpg
http://farm3.static.flickr.com/2678/4108431573_f1eb3b4480.jpg
http://farm3.static.flickr.com/2600/3671775827_edebbb2b09.jpg
http://farm3.static.flickr.com/2413/2205560566_9c2fb09148.jpg
http://i3.photobucket.com/albums/y61/evengomer/YFtable-1.jpg
http://farm4.static.flickr.com/3004/2646604946_17df8f5f00.jpg
http://farm5.static.flickr.com/4089/4842598298_cec780f228.jpg
http://th566.photobucket.com/albums/ss109/spaceshiprepairman/th_104_0990.jpg
http://farm4.static.flickr.com/3644/3323428812_49895d5838.jpg
http://farm5.static.flickr.com/4024/4566594218_b5cb4da11d.jpg
http://farm4.static.flickr.com/3267/2589063726_97a2c06dd2.jpg
http://farm1.static.flickr.com/11/12571487_36d9fc1c4f.jpg
http://mister880.com/wp-content/uploads/2010/10/marseim3-300x200.jpg
http://farm3.static.flickr.com/2153/2480148511_69f8095760.jpg
http://www.earthrights.net/images/mod1-childontrashpile.png
http://farm6.static.flickr.com/5247/5346755869_7dc4afcb94.jpg
http://www.sustainablecityblog.com/wp-content/uploads/2008/11/pile-of-trash-2.jpg
http://farm4.static.flickr.com/3182/2375235991_b04582db8b.jpg
http://farm1.static.flickr.com/8/6746939_5e43cbf85c.jpg
http://blog.evri.com/wp-content/files_mf/1294442934garbage_pile.jpg
http://thumbnails.truveo.com/0004/8D/0D/8D0DD485337731AEA2774C_Large.jpg
http://farm5.static.flickr.com/4048/4294426657_1fb9a42273.jpg
http://msnbcmedia.msn.com/j/MSNBC/Components/Photo/_new/pb-110113-nyc-garbage-9a.photoblog900.jpg
http://farm4.static.flickr.com/3273/2787850946_f4ef6be925.jpg
http://www.johnlund.com/images/Garbage-Pollution-Landfill-Mountain.jpg
http://letsgetgreen.files.wordpress.com/2007/11/img_1363.jpg
http://4.bp.blogspot.com/_-AQa73BIBuM/SY5nBrvl0KI/AAAAAAAAC9w/G_9kgjOo8-Q/s400/Trash+pile+on+sandbar+450.jpg
http://aday.home.cern.ch/aday/Scrapheap/Round2/Build%20Day%20(6).JPG
http://farm4.static.flickr.com/3014/3072342740_1bd4b375e1.jpg
http://s3.amazonaws.com/sfb111/story_xlimage_2011_01_R5815_Trash_piles_01042011.jpg
http://farm4.static.flickr.com/3432/3973622663_bc0689ab5c.jpg
http://www.retrojunk.com/img/art-images/trash_pile_neatorama.jpg
http://farm1.static.flickr.com/88/277560963_568bbaf055.jpg
http://farm3.static.flickr.com/2408/2061299228_6e71db6501.jpg
http://farm1.static.flickr.com/25/48995298_ee1cce0891.jpg
http://www.kgmoore.com/windemere/images/BranchPile.jpg
http://farm5.static.flickr.com/4097/4748907889_d14fffb8f9.jpg
http://farm1.static.flickr.com/58/173867653_40800674d7.jpg
http://farm4.static.flickr.com/3267/3526129191_ac9b0c4825.jpg
http://farm4.static.flickr.com/3112/2646605599_78cee7d044.jpg
http://farm6.static.flickr.com/5129/5244026928_15fd5f2347.jpg
http://grrl.files.wordpress.com/2008/08/trash-8-08-pile-close.jpg
http://www.fgcupinnacle.com/sites/default/files/uploads/imagecache/460-column/photos/Tim%20Clark/PenaHaiti.jpg
http://www.horizon-esi.com/images/photos/duediligence/trashpile.jpg
http://mksviews.files.wordpress.com/2009/09/pile_of_trash.jpg?w=238&h=286
http://farm1.static.flickr.com/65/199810275_4909ecec48.jpg
http://farm2.static.flickr.com/1289/1351154552_92864d5885.jpg
http://farm6.static.flickr.com/5250/5252474695_cc0c81dc6d.jpg
http://farm3.static.flickr.com/2507/3737591853_4c82568e5c.jpg
http://farm3.static.flickr.com/2169/2057019218_de17d22089.jpg
http://www.vk2zay.net/article/file/966
http://farm3.static.flickr.com/2345/2366602526_7bdfcb54cf.jpg
http://farm3.static.flickr.com/2138/2247682593_048c7c15fe.jpg
http://farm3.static.flickr.com/2624/4076387210_76ce69e329.jpg
http://farm4.static.flickr.com/3051/2941535987_be133d5c21.jpg
http://farm2.static.flickr.com/1397/561947349_4356c8d25e.jpg
http://farm4.static.flickr.com/3616/3672268543_239f255403.jpg
http://farm1.static.flickr.com/231/513230576_54503df14c.jpg
http://farm5.static.flickr.com/4080/4866583647_eaab800100.jpg
http://3.bp.blogspot.com/_csuLkENpElM/SwNrxJH103I/AAAAAAAAAEg/_5hkmVaww98/s1600/003.JPG
http://3.bp.blogspot.com/_ujk9GTedwW8/Spke951EvrI/AAAAAAAAaso/U7UdBcbQf9k/s400/Paramaribo+Maagdenstraat+afval+bij+overwoekerd+perceel+dWT+29082009.jpg
http://farm3.static.flickr.com/2149/2544572614_bdae3aabaf.jpg
http://i.pbase.com/g6/94/339594/2/73474637.SC1bcFzl.jpg
http://farm4.static.flickr.com/3272/2865466577_e122240ed5.jpg
http://www.matsongraphics.com/graphic-design-blog-huntington-beach/wp-content/uploads/2009/11/big-pile-of-trash.jpg
http://farm5.static.flickr.com/4062/4401233669_8fcfe43dbb.jpg
http://farm2.static.flickr.com/1072/3171875129_747e7a9475.jpg
http://www.michaeljohngrist.com/wp-content/uploads/2008/07/toyobowl/toyo%20bowl%20shoe%20pile.jpg
http://treeboxvodka.com/images/11-street-1.jpg
http://farm1.static.flickr.com/35/72625524_bb0837facd.jpg
http://farm2.static.flickr.com/1086/615555071_663b36fb6f.jpg
http://farm3.static.flickr.com/2304/2234097972_502c99d4f2.jpg
http://farm6.static.flickr.com/5130/5354398546_89ea4d7c59.jpg
http://farm5.static.flickr.com/4091/4962149566_0333959abf.jpg
http://farm5.static.flickr.com/4035/4394409573_2250a8998f.jpg
http://2.bp.blogspot.com/_3SEee3m2Je4/R091__bFRUI/AAAAAAAABD4/KsAuK1MyFoc/s1600-R/DSC_1543.jpg
http://farm5.static.flickr.com/4118/4748942745_1670c79263.jpg
http://farm4.static.flickr.com/3102/3927198562_0eb8620d94.jpg
http://nymag.com/images/2/daily/entertainment/08/05/06_ac_lg.jpg
http://farm3.static.flickr.com/2090/1808379314_ac7c8dbd18.jpg
http://farm1.static.flickr.com/62/195497211_d58a3596b6.jpg
http://farm3.static.flickr.com/2789/4300596902_34b6f1742b.jpg
http://farm6.static.flickr.com/5029/5602821620_05971833b8.jpg
http://c.photoshelter.com/img-get/I0000EDMV_MJ.S9s/s/650/650/pile-of-metal-junk-cdg-001.jpg
http://farm5.static.flickr.com/4001/4530359246_2dba4b4a40.jpg
http://www.slvhealth.org/programs/sanitationSafety/images/trashPile.jpg
http://celebrating200years.noaa.gov/magazine/debris/image6_220.jpg
http://farm1.static.flickr.com/44/177458706_6b4bd83ba9.jpg
http://www.retailsims.com/Urban/u_pics/110_TrashPile1.jpg
http://farm3.static.flickr.com/2127/2054009969_1b9b115ae1.jpg
http://farm5.static.flickr.com/4029/4590329221_69a8bf68df.jpg
http://farm5.static.flickr.com/4041/4281245418_62ed8fabfb.jpg
http://farm1.static.flickr.com/125/365030022_baadd106f3.jpg
http://farm6.static.flickr.com/5041/5338908201_f59124e6f5.jpg
http://farm4.static.flickr.com/3397/3601951259_b9c1d34eec.jpg
http://farm3.static.flickr.com/2621/3685023338_a8efea6b09.jpg
http://farm1.static.flickr.com/13/16881037_f5ade74ce9.jpg
http://farm1.static.flickr.com/141/362880538_b942ee5bd2.jpg
http://farm1.static.flickr.com/93/233974736_77c05f9429.jpg
http://posterous.com/getfile/files.posterous.com/guykawasaki/spIJIcEpCbpaqpjmbltHhehBstskimByymjfsFyhFkgrIilbuvpiaeqxwnjI/media_httpfarm6static_hCHAI.jpg.scaled500.jpg
http://farm3.static.flickr.com/2420/3679766256_4c519cbfa9.jpg
http://farm1.static.flickr.com/141/353779373_5a86549c0f.jpg
http://farm6.static.flickr.com/5285/5284693424_c44366ce2f.jpg
http://farm5.static.flickr.com/4012/4611048450_a511fc8136.jpg
http://farm2.static.flickr.com/1095/700617614_6caa04a898.jpg
http://farm2.static.flickr.com/1248/567124940_d9253815e7.jpg
http://www.destructoid.com/elephant/ul/29106-trash-pile.jpg
http://farm1.static.flickr.com/4/9204952_8ed5ffcc34.jpg
http://farm1.static.flickr.com/196/521686823_ba07c13d77.jpg
http://farm5.static.flickr.com/4133/4959781555_f692a36bb1.jpg
http://farm1.static.flickr.com/51/140330593_5f4ed6b955.jpg
http://www.willrobbphotography.com/wp-content/uploads/2010/01/84.jpg
http://farm3.static.flickr.com/2495/4043341833_f5a65771ae.jpg
http://lilgreaser.com/Jeep/Images/4Cyl-Carb-Demolition--PileOTrash.JPG
http://images.travelpod.ca/users/dfarge/thumbnail.large.europe-2006.1150730700.pic_016.jpg
http://farm1.static.flickr.com/34/70272112_a01f625ae6.jpg
http://farm5.static.flickr.com/4028/5137564426_9c027668fe.jpg
http://farm1.static.flickr.com/37/77150862_cf1d564daf.jpg
http://farm3.static.flickr.com/2012/1693056769_0973a0376b.jpg
http://blogs.scottarboretum.org/gardenseeds/wp-content/uploads/2008/09/dsc01765.jpg
http://farm3.static.flickr.com/2670/3682736323_2c83f4dd85.jpg
http://nachomamasquilt.files.wordpress.com/2011/01/img_0976.jpg
http://www.oldphonestore.com/images/OldOhoneTrashSmall.jpg
http://farm5.static.flickr.com/4017/4391220890_d833a1caf9.jpg
http://farm4.static.flickr.com/3147/2712591062_7565166509.jpg
http://farm4.static.flickr.com/3632/3679467438_d34114cde6.jpg
http://image.shutterstock.com/display_pic_with_logo/88356/88356,1235955097,1/stock-photo-a-pile-of-black-garbage-bags-with-tons-of-trash-25864540.jpg
http://www.tuppinzfarm.com/blog/082408/trashpile2.jpg
http://farm4.static.flickr.com/3171/2997173045_99091cf26a.jpg
http://farm5.static.flickr.com/4036/4417941134_9a0a9299a8.jpg
http://farm1.static.flickr.com/153/421503430_cdf26bfe76.jpg
http://farm5.static.flickr.com/4087/5187566189_0b6e2d1101.jpg
http://www.towernetwork.com/images/park_trash_pile.jpg
http://farm1.static.flickr.com/96/235976381_151d6dd322.jpg
http://farm4.static.flickr.com/3045/3110384751_d18a35c865.jpg
http://whyarewomensostupid.com/wp-content/uploads/2010/07/Trash-by-the-door.jpg
http://farm1.static.flickr.com/55/112264600_1152488229.jpg
http://farm1.static.flickr.com/15/92218147_8ebaec5a76.jpg
http://farm4.static.flickr.com/3414/3225194390_2cfc85329a.jpg
http://farm2.static.flickr.com/1102/3169001453_e58329a54a.jpg
http://farm5.static.flickr.com/4035/4290463726_80b931b58e.jpg
http://farm4.static.flickr.com/3531/3293630006_4db013c985.jpg
http://farm4.static.flickr.com/3061/2581540361_80df3d9441.jpg
http://cayennephotography.com/cherryblossoms2003/Cherry-Blossoms-2003-352.jpg
http://farm4.static.flickr.com/3127/2785365450_6a7b29d583.jpg
http://tomscocca.com/newbags.jpg
http://theclutternanny.com/examples/after/mightytrash.jpg
http://farm4.static.flickr.com/3483/3713799301_c19a66e4f6.jpg
http://abandoned-orphaned.typepad.com/photos/uncategorized/boy_on_trash_mathare.jpg
http://media.morristechnology.com/mediafilesvr/upload/barrownews/article/2011/02/23/Dumping.jpg
http://farm4.static.flickr.com/3664/4062920152_1fd3ffb367.jpg
http://farm4.static.flickr.com/3358/3217562853_913af60555.jpg
http://farm5.static.flickr.com/4138/4758088613_ba7cce0da7.jpg
http://farm3.static.flickr.com/2664/3681156060_8f7d66c86b.jpg
http://farm1.static.flickr.com/141/352504028_5bba3d62a6.jpg
http://farm1.static.flickr.com/114/301379774_75832e212b.jpg
http://farm6.static.flickr.com/5042/5272539067_aed40d1092.jpg
http://2.bp.blogspot.com/_s6gpY93_ouE/TPSGyCWBXmI/AAAAAAAAAS4/FbOtUIN0ZkU/s1600/concretejungle%2528thebirds%25291992.jpg
http://farm4.static.flickr.com/3487/3282248890_2e67760339.jpg
http://farm3.static.flickr.com/2689/4459252297_75bb0c1135.jpg
http://farm3.static.flickr.com/2541/3680473561_621a07d8bd.jpg
http://farm3.static.flickr.com/2765/4298811677_399f13fc79.jpg
http://farm4.static.flickr.com/3287/3080263310_0c071e2032.jpg
http://farm5.static.flickr.com/4111/5042462130_47750c9f69.jpg
http://farm3.static.flickr.com/2790/4149167803_37e3438829.jpg
http://th570.photobucket.com/albums/ss145/AARSwingSwing/th_Wall-E-Screencap-wall-e-3351182-720.jpg
http://www.indiamike.com/photopost/data/504/406DSC02517.JPG
http://farm3.static.flickr.com/2122/2042902093_38199bb975.jpg
http://farm3.static.flickr.com/2747/4465277884_03bae9d996.jpg
http://farm3.static.flickr.com/2657/4080461328_091555a3ea.jpg
http://farm4.static.flickr.com/3549/3484779577_4b621ef1f9.jpg
http://farm5.static.flickr.com/4037/4230500421_ae9eef638c.jpg
http://farm4.static.flickr.com/3173/2900264976_578aa4906e.jpg
http://farm1.static.flickr.com/49/176725652_0431d5cfcb.jpg
http://archive.rhizomecollective.org/Images2/Photos/LandPhotos/brownField007.jpg
http://farm4.static.flickr.com/3305/4603913490_a23d479d5b.jpg
http://farm6.static.flickr.com/5065/5602239619_8cc0611a31.jpg
http://www.humanesociety.org/assets/images/270x224/animals/dogs/tn_dog_trash_pile.gif
http://farm5.static.flickr.com/4019/4267671338_40ab3beb68.jpg
http://farm6.static.flickr.com/5044/5206029197_37a2ee9cc7.jpg
http://farm1.static.flickr.com/145/409043432_75a1787397.jpg
http://farm4.static.flickr.com/3021/3048504152_d2fc156e02.jpg
http://farm3.static.flickr.com/2567/3809116650_6a72ca306d.jpg
http://farm4.static.flickr.com/3421/3211110269_64fddb193a.jpg
http://farm2.static.flickr.com/1173/616312694_8fdd79c659.jpg
http://farm1.static.flickr.com/22/33718913_36e42d3fc6.jpg
http://farm1.static.flickr.com/115/262642624_598745ddcf.jpg
http://farm4.static.flickr.com/3456/3237189685_04a98cc786.jpg
http://www.japandemic.com/Dtwent/trash-pile300.jpg
http://farm2.static.flickr.com/1062/533140313_2d57f4ebf0.jpg
http://farm4.static.flickr.com/3236/2894983193_a9f54bfa6e.jpg
http://c.photoshelter.com/img-get/I0000LmbQWjEh4k8/s/850/0083-Vietnam-2009.jpg
http://www.pp.utk.edu/Recycle/images/Trashmore3.jpg
http://farm1.static.flickr.com/126/320535547_a310959366.jpg
http://farm5.static.flickr.com/4066/4649341944_91224865ee.jpg
http://farm6.static.flickr.com/5026/5604533767_7e98842fdc.jpg
http://farm1.static.flickr.com/110/286973881_178c5a6ada.jpg
http://farm6.static.flickr.com/5227/5564710667_e984a99324.jpg
http://farm5.static.flickr.com/4048/4449640725_3118b5f28d.jpg
http://innovationsdevelopmentgroup.com/wp-content/uploads/2010/03/garbage_patch.jpg
http://www.oneloveworldwide.org/wp-content/uploads/2010/08/IMG_2774.jpg
http://farm2.static.flickr.com/1004/1429166103_3234604003.jpg
http://farm4.static.flickr.com/3265/2298451057_82096679c3.jpg
http://farm3.static.flickr.com/2475/3705078298_8f6344dbfb.jpg
http://www.terradaily.com/images/rubbish-garbage-pile-uk-jan11-afp-bg.jpg
http://farm3.static.flickr.com/2348/2337672981_d28c4c747d.jpg
http://www.dw-world.de/image/0,,3228688_1,00.jpg
http://1.bp.blogspot.com/_-Wk44shjlbM/TQ9R3XjCzkI/AAAAAAAAAR0/GNafr23MLPk/s320/picture%2Bfor%2Bblog%2B2.JPG
http://farm3.static.flickr.com/2404/2227339316_08bc417540.jpg
http://cache3.asset-cache.net/xc/107927130.jpg?v=1&c=NewsMaker&k=2&d=77BFBA49EF87892102A727B1636DE2E61833B3F7D4CC51B78DC7B16096E1DC1B338C944980A05946E30A760B0D811297
http://farm6.static.flickr.com/5248/5222716131_1ef0d67344.jpg
http://i.imwx.com/web/multimedia/images/onedegree/sb10067366h-001.jpg
http://farm6.static.flickr.com/5089/5259597132_54eee9be21.jpg
http://farm1.static.flickr.com/72/195950288_e674192552.jpg
http://farm3.static.flickr.com/2463/3681265122_6956151b49.jpg
http://image.shutterstock.com/display_pic_with_logo/71330/71330,1258845742,2/stock-photo-a-pile-of-black-garbage-plastic-bags-with-tons-of-trash-41365192.jpg
http://www.canvocta.org/images/FernleyCleanup2008_1.jpg
http://3.bp.blogspot.com/_L4Gu70yQU38/RwgDU9j1qwI/AAAAAAAAABE/64X0vyniKkw/s320/Trash+Pile.jpg
http://treeboxvodka.com/images/%60/31naples-600.jpg
http://farm3.static.flickr.com/2051/1817934688_2c253284de.jpg
http://img1.photographersdirect.com/img/11899/wm/pd703075.jpg
http://farm5.static.flickr.com/4103/5043028339_b9d4066a8b.jpg
http://farm3.static.flickr.com/2230/2274778664_cafce30562.jpg
http://farm2.static.flickr.com/1349/1362630757_d0629cc1b3.jpg
http://farm6.static.flickr.com/5041/5376270333_d75a073019.jpg
http://farm5.static.flickr.com/4095/4867196784_7284885072.jpg
http://farm6.static.flickr.com/5107/5590933980_81b40ee97c.jpg
http://farm4.static.flickr.com/3230/2683789948_4af3dbc7d8.jpg
http://farm1.static.flickr.com/58/166569552_c91aa0077f.jpg
http://farm5.static.flickr.com/4125/5033131961_297621999c.jpg
http://farm3.static.flickr.com/2214/2236625213_3bf143c0b0.jpg
http://farm3.static.flickr.com/2503/3685022628_ba6b3f6759.jpg
http://farm3.static.flickr.com/2219/2142167730_a45f650920.jpg
http://farm4.static.flickr.com/3220/2542031370_7141bc79ee.jpg
http://farm4.static.flickr.com/3263/2553348666_0460b3e250.jpg
http://farm3.static.flickr.com/2627/3858530337_8486249fb7.jpg
http://farm4.static.flickr.com/3250/3148255264_b3f2cabbdf.jpg
http://farm4.static.flickr.com/3111/2802939056_7b96dd9b66.jpg
http://farm3.static.flickr.com/2136/2227345624_fc5c40dac5.jpg
http://farm4.static.flickr.com/3267/2648629881_8098fcb2b5.jpg
http://farm3.static.flickr.com/2155/1523887618_32521a41c6.jpg
http://farm4.static.flickr.com/3411/3225357644_db26ce60fd.jpg
http://farm2.static.flickr.com/1413/761421406_f1c6a30149.jpg
http://farm1.static.flickr.com/109/315834376_ec12d33c25.jpg
http://www.southfayetteconservation.org/Pile%20of%20Trash.JPG
http://msnbcmedia3.msn.com/j/ap/20ec0286-c729-4570-be29-32f084161d4e.grid-6x2.jpg
http://www3.allaroundphilly.com/blogs/pottstown/thingreenline/uploaded_images/trashpile-788207.jpg
http://farm3.static.flickr.com/2253/2322005811_acf5a53917.jpg
http://farm2.static.flickr.com/1244/1050763963_a9e1702347.jpg
http://www.istockphoto.com/file_thumbview_approve/4391397/2/istockphoto_4391397-scrap-heap.jpg
http://www.visibletrash.net/wp-content/uploads/2009/03/paper-trash-pile.jpg
http://www.zerowasteamerica.org/Images/TrashPile.jpg
http://farm4.static.flickr.com/3222/2606497876_2e60226a94.jpg
http://www.thepanamadigest.com/wp-content/uploads/2010/04/Garbage-on-East-27th-Street.jpg
http://1.bp.blogspot.com/_2t4NSadMxtg/TRsl6JyBG4I/AAAAAAAABdA/T8t4XhTblSg/s1600/Man+Eating+on+a+Trash+Pile.jpg
http://farm3.static.flickr.com/2431/3994962807_fb35799c79.jpg
http://farm3.static.flickr.com/2290/3538250074_330aee8d67.jpg
http://farm1.static.flickr.com/155/377681291_d0f410dad8.jpg
http://farm1.static.flickr.com/56/106327895_dc374855ea.jpg
http://i301.photobucket.com/albums/nn77/Whackjob_photos/100_0092.jpg
http://farm4.static.flickr.com/3002/2906313648_db8ac5c2f9.jpg
http://abandoned-orphaned.typepad.com/photos/uncategorized/2007/08/19/trashchildcambodia.jpg
http://farm3.static.flickr.com/2237/2365276265_a53474d558.jpg
http://farm4.static.flickr.com/3404/3275483121_97ffacd75d.jpg
http://farm2.static.flickr.com/1026/1454489354_f0fa16448b.jpg
http://media.courierpress.com/media/img/photos/2010/09/07/20100907-232042-pic-550866754_t607.jpg
http://farm1.static.flickr.com/102/277383470_6c5cd8b9e1.jpg
http://farm3.static.flickr.com/2506/3776159437_da18c7212d.jpg
http://farm3.static.flickr.com/2300/2021351893_123050afab.jpg
http://farm4.static.flickr.com/3642/3426069829_85a8404cd9.jpg
http://media.naplesnews.com/media/img/photos/2011/03/16/pr-alexpenafgcu_40316_2_t75_75.jpg
http://farm1.static.flickr.com/45/128421303_877324b12a.jpg
http://farm2.static.flickr.com/1051/1161166938_7341e7728d.jpg
http://farm4.static.flickr.com/3151/2569360200_4eeac8d83d.jpg
http://www.willrobbphotography.com/wp-content/uploads/2010/01/54.jpg
http://farm3.static.flickr.com/2040/2198432490_1a41bd53f7.jpg
http://farm4.static.flickr.com/3175/3006632730_e19692ac05.jpg
http://farm5.static.flickr.com/4133/5065935669_d1da002693.jpg
http://farm3.static.flickr.com/2418/2454887615_5ea02385ed.jpg
http://farm3.static.flickr.com/2790/4019323940_39228b5791.jpg
http://farm1.static.flickr.com/11/16372819_f4c4b79103.jpg
http://farm3.static.flickr.com/2309/2087194532_0fe286fc21.jpg
http://farm5.static.flickr.com/4032/4430500199_92ac7481e7.jpg
http://pigjockey.com/wp-content/uploads/2009/08/computer-junkie.gif
http://farm3.static.flickr.com/2127/2510484780_edc31242c9.jpg
http://farm2.static.flickr.com/1031/577816721_581a2a8f4c.jpg
http://3.bp.blogspot.com/_fPovTSJj5Cc/S63IhzhcRNI/AAAAAAAAATY/X1UcTfXRuIs/s1600/DSCN0601.JPG
http://farm5.static.flickr.com/4039/4482737005_fb6278e67d.jpg
http://farm3.static.flickr.com/2580/3859764456_1e81f860e1.jpg
http://farm4.static.flickr.com/3528/3864834862_4f9a50f1a2.jpg
http://i564.photobucket.com/albums/ss88/blakem/r215178_834956.jpg
http://www.freakingnews.com/pictures/26000/Manhattan-trash--26037.jpg
http://farm6.static.flickr.com/5097/5408796993_1c77320b92.jpg
http://farm4.static.flickr.com/3175/2635852523_ec031cb39a.jpg
http://farm1.static.flickr.com/41/86847013_ad38b7ba07.jpg
http://farm5.static.flickr.com/4102/4821308906_ef9e5b5f2a.jpg
http://www.rat-patrol.org/canal/trashpile.jpg
http://farm4.static.flickr.com/3552/3523497760_3064eb2fca.jpg
http://farm3.static.flickr.com/2110/2226557091_198834f779.jpg
http://farm1.static.flickr.com/167/392558333_7056f9ca6d.jpg
http://images.travelpod.com/users/rawhideone/6.1278454299.driving-into-the-dump.jpg
http://www.eper.de/__stuff/deponie.jpg
http://farm1.static.flickr.com/32/53450582_30dde1e6c8.jpg
http://farm1.static.flickr.com/6/11912333_1420c539d7.jpg
http://farm1.static.flickr.com/146/333113311_b871011465.jpg
http://farm3.static.flickr.com/2554/3773038599_df4b817a38.jpg
http://farm4.static.flickr.com/3197/2778853847_9bcc7a34ff.jpg
http://farm4.static.flickr.com/3451/3809106396_95b53ed99a.jpg
http://farm5.static.flickr.com/4083/5058121961_ca90dd87bb.jpg
http://farm1.static.flickr.com/30/68581361_00560d1f32.jpg
http://blog.seattlepi.com/thebigblog/files/library/450pacific.JPG
http://farm4.static.flickr.com/3608/3290035071_3abcc93776.jpg
http://farm3.static.flickr.com/2722/4536702344_c12f4d9865.jpg
http://farm4.static.flickr.com/3137/2584000717_cd3f8ba2f8.jpg
http://farm3.static.flickr.com/2733/4283669676_df1cc9ba4e.jpg
http://farm4.static.flickr.com/3623/4074015206_153b7446a6.jpg
http://farm4.static.flickr.com/3640/3296168234_758c9d2e10.jpg
http://farm1.static.flickr.com/14/15408273_1bf2a5778d.jpg
http://1.bp.blogspot.com/-W-YkS0N-OP4/TXUUaxdOuDI/AAAAAAAAB68/7hfua34WcoY/s1600/Picture%2B14.png
http://farm4.static.flickr.com/3644/3576357800_88abbe5b9c.jpg
http://farm4.static.flickr.com/3244/2663107431_7fb225887a.jpg
http://farm3.static.flickr.com/2204/2142192906_24827206d3.jpg
http://farm1.static.flickr.com/73/162575578_d7fc95f162.jpg
http://farm1.static.flickr.com/41/95087950_e15f24e5d5.jpg
http://farm5.static.flickr.com/4053/4539442333_fa1fd18de7.jpg
http://cdn1.newsone.com/files/2010/05/i127481508013454538.jpg
http://farm2.static.flickr.com/1262/4728680529_9f83c5f37a.jpg
http://farm1.static.flickr.com/79/278199592_b2378bfe31.jpg
http://www.petergreenberg.com/wp-content/uploads/2008/11/naples-trash.jpg
http://letsgetgreen.files.wordpress.com/2007/10/landfill.jpg
http://farm3.static.flickr.com/2576/3685820893_1011f9bbeb.jpg
http://farm4.static.flickr.com/3274/3071329373_3a0eacc478.jpg
http://farm5.static.flickr.com/4090/5062886920_35e48b9d7f.jpg
http://farm2.static.flickr.com/1377/1244778655_bba2100738.jpg
http://farm4.static.flickr.com/3330/4601951718_65d15c4f02.jpg
http://farm6.static.flickr.com/5004/5365841294_27826469be.jpg
http://farm4.static.flickr.com/3556/3828453383_5f349eb5be.jpg
http://farm3.static.flickr.com/2312/1820689547_d5e4e49e82.jpg
http://farm3.static.flickr.com/2027/2106395580_fea067d174.jpg
http://farm5.static.flickr.com/4014/4675258842_edf6cd7e89.jpg
http://farm1.static.flickr.com/158/337712840_bd3368f85d.jpg
http://farm4.static.flickr.com/3634/3575185631_9427a381ea.jpg
http://farm2.static.flickr.com/1219/1110114750_8dcd1ffcc7.jpg
http://farm4.static.flickr.com/3532/3787991752_6f00a813c8.jpg
http://image.shutterstock.com/display_pic_with_logo/53475/53475,1130186632,2/stock-photo-trash-pile-flag-658451.jpg
http://photos.travelblog.org/Photos/124159/414099/f/3993834-Little-girl-by-a-trash-pile-0.jpg
http://farm3.static.flickr.com/2147/2226550051_4c48162996.jpg
http://farm3.static.flickr.com/2091/1809212263_a60cbfadd0.jpg
http://the.honoluluadvertiser.com/dailypix/2002/Mar/25/ln01a_b.jpg
http://farm1.static.flickr.com/35/70272082_6f093b3daf.jpg
http://farm1.static.flickr.com/76/192716276_c4af38abe4.jpg
http://farm2.static.flickr.com/1111/5138525936_fded4755b8.jpg
http://farm5.static.flickr.com/4064/4530072916_f950f4177a.jpg
http://www.actionpa.org/stoptheburn/dozer.jpg
http://farm4.static.flickr.com/3156/2295964482_82c29383a5.jpg
http://farm4.static.flickr.com/3494/3819762899_33c8b504c8.jpg
http://www.michaeltotten.com/images/Trash%20Pile%20Adhamiyah.jpg
http://assets.mediaspanonline.com/prod/2339039/cannonmilldemojon011_w300.jpg
http://farm4.static.flickr.com/3107/2566621184_4ecbeb6869.jpg
http://ecologycenter.org/iptf/WastePile.jpg
http://farm1.static.flickr.com/51/176725651_0306ff82de.jpg
http://farm1.static.flickr.com/81/217112788_625212d679.jpg
http://farm4.static.flickr.com/3318/4626855311_60cfe48e55.jpg
http://farm4.static.flickr.com/3008/3083971962_da63e0e77e.jpg
http://farm1.static.flickr.com/109/276637030_5bb9fa085f.jpg
http://farm3.static.flickr.com/2307/2096848874_19df0147fa.jpg
http://farm4.static.flickr.com/3285/3090494091_d6869355e6.jpg
http://farm4.static.flickr.com/3369/3672713178_43a3cec3e1.jpg
http://farm4.static.flickr.com/3221/2998540726_4aca8b16cb.jpg
http://farm3.static.flickr.com/2293/2359181290_4ed3f0377f.jpg
http://farm4.static.flickr.com/3338/3277920324_5c2b957b88.jpg
http://oceanwildthings.com/wp-content/uploads/2010/09/After-Labor-Day-mess.jpg
http://farm4.static.flickr.com/3033/2591742851_56971c1269.jpg
http://farm5.static.flickr.com/4004/4253304859_b9bc0e171c.jpg
http://unitedbyblue.com/wp-content/uploads/2010/04/trash-pile-at-river-cleanup-300x225.jpg
http://farm1.static.flickr.com/194/442951601_31cdc16277.jpg
http://media.morristechnology.com/mediafilesvr/upload/gainesville/article/0606trash1.jpg
http://www.sprucepineumc.org/images/524.JPG
http://farm4.static.flickr.com/3349/3342692751_8237d76351.jpg
http://farm4.static.flickr.com/3609/3431674916_35cb50e9dd.jpg
http://farm4.static.flickr.com/3242/2984507783_19c32789a7.jpg
http://farm3.static.flickr.com/2436/3710303241_31af829ff3.jpg
http://farm4.static.flickr.com/3543/3371985270_d7f49b5d63.jpg
http://farm4.static.flickr.com/3193/2574450287_a64a805196.jpg
http://farm4.static.flickr.com/3380/3556824013_37d6a61d7d.jpg
http://farm3.static.flickr.com/2303/2325266785_b589b0c9fd.jpg
http://farm4.static.flickr.com/3329/3410237028_04e8ac3c31.jpg
http://farm3.static.flickr.com/2681/4346265615_c111333398.jpg
http://farm2.static.flickr.com/1050/1043941945_eb49ac9ace.jpg
http://farm1.static.flickr.com/9/12571364_a951a91dbd.jpg
http://static.panoramio.com/photos/original/12390092.jpg
http://informuzone.com/wp-content/uploads/2007/11/leaf-bag-pile.jpg
http://farm5.static.flickr.com/4065/4485839267_5ee278719a.jpg
http://animalnewyork.com/wp-content/uploads/2009/12/pigs1.jpg
http://farm4.static.flickr.com/3272/2887659228_679b929eee.jpg
http://farm4.static.flickr.com/3548/3681958512_d57f9627a0.jpg
http://www.photospin.com/content/photos/full/0130038.jpg
http://farm3.static.flickr.com/2166/2267449986_38484164bb.jpg
http://farm4.static.flickr.com/3533/3808307733_a7326512e9.jpg
http://farm1.static.flickr.com/34/72060490_e75945e26a.jpg
http://farm1.static.flickr.com/59/158275171_354fb6d7d3.jpg
http://farm1.static.flickr.com/69/213160690_b4b183bc2b.jpg
http://farm6.static.flickr.com/5051/5448941845_43e0a4e3c7.jpg
http://farm1.static.flickr.com/185/407574340_9c980f18c5.jpg
http://farm2.static.flickr.com/1329/751081716_efc24606f7.jpg
http://farm3.static.flickr.com/2378/2055800052_c1c18ab7b4.jpg
http://farm3.static.flickr.com/2498/3759134467_e7bee941a0.jpg
http://www.cbc.ca/gfx/images/news/photos/2009/06/22/to-pitts-garbage-062209.jpg
http://farm4.static.flickr.com/3357/3611515942_cc8145f075.jpg
http://farm5.static.flickr.com/4034/4631056578_25bdb0450b.jpg
http://farm1.static.flickr.com/1/767548_abe38c62fc.jpg
http://farm5.static.flickr.com/4022/4630457815_6f2d054c70.jpg
http://farm4.static.flickr.com/3295/3139217305_0964650ee5.jpg
http://farm1.static.flickr.com/42/81338356_bc344413e0.jpg
http://farm4.static.flickr.com/3166/2297205388_9128fdfacf.jpg
http://farm4.static.flickr.com/3232/2648177280_aee32d5949.jpg
http://farm1.static.flickr.com/170/423780864_1ef3b5e02b.jpg
http://farm3.static.flickr.com/2325/2138775153_a4b7a4bd75.jpg
http://farm3.static.flickr.com/2502/4026960257_42575e412a.jpg
http://farm5.static.flickr.com/4008/4680004231_5dfc13c51e.jpg
http://c0875922.cdn.cloudfiles.rackspacecloud.com/16761.story_x_large.jpg
http://farm4.static.flickr.com/3157/2685570320_d93a6bc81f.jpg
http://farm1.static.flickr.com/26/41727202_a98d71f71f.jpg
http://farm3.static.flickr.com/2184/2237412986_a297bbec6d.jpg
http://www.greenprophet.com/wp-content/uploads/2010/12/trash-560x374.jpg
http://farm1.static.flickr.com/188/414220188_6781b14358.jpg
http://www.tuppinzfarm.com/blog/082408/trashpile.jpg
http://farm1.static.flickr.com/189/497041274_b29a4d406c.jpg
http://farm4.static.flickr.com/3167/2566588284_b100bdc9ce.jpg
http://farm4.static.flickr.com/3387/3275301370_7993b141e7.jpg
http://farm4.static.flickr.com/3540/3672655038_760907af44.jpg
http://farm4.static.flickr.com/3505/3886581811_be19d39a18.jpg
http://jeremiasx.files.wordpress.com/2007/07/trash-pile-redux.jpg
http://www2.tbo.com/exposure/ar/659/372/2010/07/30/60661_pasco-trash.jpg
http://farm3.static.flickr.com/2565/3672591726_412c1610a6.jpg
http://farm2.static.flickr.com/1260/1326711944_68a546ec2c.jpg
http://farm4.static.flickr.com/3046/2541308442_157b94db91.jpg
http://farm3.static.flickr.com/2311/2219375511_0a1231f662.jpg
http://farm4.static.flickr.com/3536/3185048071_d2eca7a2e8.jpg
http://farm4.static.flickr.com/3581/3428362967_bf8041fe7a.jpg
http://farm6.static.flickr.com/5263/5592075263_0c76a70f48.jpg
http://farm3.static.flickr.com/2553/3802127833_e9884dc714.jpg
http://farm3.static.flickr.com/2146/2433740017_333840ebb3.jpg
http://farm1.static.flickr.com/36/82790207_421d02a76e.jpg
http://farm4.static.flickr.com/3616/3450615938_4f46fe8437.jpg
http://farm3.static.flickr.com/2591/4180361645_b9629a3484.jpg
http://farm5.static.flickr.com/4002/4674088860_c0f4290909.jpg
http://farm3.static.flickr.com/2645/3816074040_12c3295f78.jpg
http://farm4.static.flickr.com/3099/3080514979_4f7164c5bd.jpg
http://farm2.static.flickr.com/1366/1364432096_3546882d00.jpg
http://farm2.static.flickr.com/1303/1316479667_01a0fdfe4e.jpg
http://farm3.static.flickr.com/2383/2987848244_11899ed071.jpg
http://farm5.static.flickr.com/4081/4881303879_90653606de.jpg
http://farm3.static.flickr.com/2389/3538251112_b7cdc05247.jpg
http://farm3.static.flickr.com/2186/2245705749_5a0f198999.jpg
http://www.featurepics.com/FI/Thumb300/20100728/Garbage-Heap-1621287.jpg
http://farm4.static.flickr.com/3201/2690678456_de965e271b.jpg
http://farm1.static.flickr.com/107/309688955_5b00c91a85.jpg
http://farm4.static.flickr.com/3100/2594665912_2261bed9f0.jpg
http://farm1.static.flickr.com/224/499878840_d28fb00563.jpg
http://farm4.static.flickr.com/3022/2632175625_aa444b7115.jpg
http://farm3.static.flickr.com/2161/2874771845_69cd38a022.jpg
http://farm1.static.flickr.com/69/156853748_eacf2c4e5f.jpg
http://farm3.static.flickr.com/2676/3858261123_7bab892594.jpg
http://farm2.static.flickr.com/1397/1407745075_045423f4a8.jpg
http://cache.boston.com/resize/bonzai-fba/Globe_Photo/2010/06/06/1275881249_2251/539w.jpg
http://farm4.static.flickr.com/3115/2631692030_fc9a1f9b13.jpg
http://farm1.static.flickr.com/102/265239984_5952288c75.jpg
http://farm2.static.flickr.com/1334/889736300_586282af00.jpg
http://farm5.static.flickr.com/4117/4819462192_08aa943f99.jpg
http://farm3.static.flickr.com/2009/2227339044_41a856a715.jpg
http://farm3.static.flickr.com/2345/2198432882_0977ecfe94.jpg
http://farm4.static.flickr.com/3037/2821134192_3c2fa731bf.jpg
http://farm2.static.flickr.com/1392/616311494_1ab56e684f.jpg
http://farm3.static.flickr.com/2752/4475496062_d6dd6abb78.jpg
http://farm3.static.flickr.com/2643/3987293855_fa892051e1.jpg
http://farm3.static.flickr.com/2247/2142194814_4e3e9bce0b.jpg
http://farm6.static.flickr.com/5060/5521508669_609cffe1b4.jpg
http://farm1.static.flickr.com/67/200612899_2f0152f7b8.jpg
http://farm2.static.flickr.com/1318/616328764_5e2eea414c.jpg
http://farm1.static.flickr.com/28/63602233_95cb180bc2.jpg
http://farm1.static.flickr.com/46/186339578_5199341e4d.jpg
http://farm1.static.flickr.com/72/195949898_176ae157f3.jpg
http://farm4.static.flickr.com/3420/3751478458_4ce6bf1f4a.jpg
http://farm5.static.flickr.com/4009/4537811832_8553a2b09b.jpg
http://farm2.static.flickr.com/1209/870134807_5addbb8654.jpg
http://farm2.static.flickr.com/1303/1384123042_b4680e737d.jpg
http://farm4.static.flickr.com/3473/3848662977_a22a183b19.jpg
http://farm3.static.flickr.com/2246/2071924224_d610aabce8.jpg
http://farm3.static.flickr.com/2268/2211119322_948be3537d.jpg
http://farm4.static.flickr.com/3605/3562349611_0c7a15f068.jpg
http://farm3.static.flickr.com/2771/4176199347_e3fa8bfdbe.jpg
http://farm3.static.flickr.com/2447/3990285729_84f7671f9b.jpg
http://farm4.static.flickr.com/3501/3265634174_b0a462434e.jpg
http://farm5.static.flickr.com/4021/4719531900_a036ae01d1.jpg
http://farm3.static.flickr.com/2593/3673262442_84d2009554.jpg
http://farm4.static.flickr.com/3073/2565785989_1373793908.jpg
http://farm3.static.flickr.com/2288/1659450725_0d9b86f346.jpg
http://farm5.static.flickr.com/4146/4974799260_be609c0142.jpg
http://l.thumbs.canstockphoto.com/canstock5696729.jpg
http://farm4.static.flickr.com/3663/3671921573_d1dd76a876.jpg
http://farm3.static.flickr.com/2703/4084871320_97fc565841.jpg
http://farm4.static.flickr.com/3617/3321591588_76f474b406.jpg
http://www.cricketbread.com/images/trash2.jpg
http://farm3.static.flickr.com/2261/1738574259_6e39599a79.jpg
http://media.thestar.topscms.com/images/b7/8a/ed0ea4324a4aa23b098190ec60b9.jpeg
http://www.bloggingbeirut.com/images/july06/trashPile.jpg
http://farm1.static.flickr.com/16/21646553_3279427923.jpg
http://www.psihoyos.com/pages/Location/images/017%20american%20trash.jpg
http://farm3.static.flickr.com/2153/2444259345_344b30df8f.jpg
http://farm4.static.flickr.com/3544/3777325655_b39dc6867f.jpg
http://farm1.static.flickr.com/139/318814861_bd2216ff27.jpg
http://farm1.static.flickr.com/147/354058702_bd1da0345d.jpg
http://farm4.static.flickr.com/3547/3316100332_8b80303bd5.jpg
http://www.markandmeg.com/blog/trashbefore.jpg
http://www3.pictures.zimbio.com/bg/Pfeiffer+face+plants+trash+hiL1iwB1oOnl.jpg
http://farm3.static.flickr.com/2708/4507150834_d9ac54f8f9.jpg
http://farm4.static.flickr.com/3103/3146235371_dd2ed312c9.jpg
http://farm5.static.flickr.com/4139/4780646389_8c549ea1f0.jpg
http://farm2.static.flickr.com/1369/1423963908_854f9a3ac6.jpg
http://img219.imageshack.us/img219/2062/interiortrashtu5.jpg
http://farm3.static.flickr.com/2620/3965135403_f84db7d884.jpg
http://farm4.static.flickr.com/3242/2708529336_eab73474ba.jpg
http://farm4.static.flickr.com/3183/2683868654_609c27cabc.jpg
http://i56.tinypic.com/65y61t.jpg
http://farm1.static.flickr.com/102/297318394_5b12f8ee10.jpg
http://farm2.static.flickr.com/1341/1484427758_e104e599c2.jpg
http://static.polylooks.com/img/daten1/da/16/ac/27_e564ad09160c9f44e6884eb6300c8cdb_a-pile-of-trash-in-a-container.jpg
http://farm4.static.flickr.com/3066/2614978782_e4c4d44fd4.jpg
http://farm4.static.flickr.com/3599/3285796070_f581bce81b.jpg
http://www.insidesocal.com/east/kusphoto.jpg
http://farm5.static.flickr.com/4120/4782793759_230c99469a.jpg
http://farm5.static.flickr.com/4064/4395284433_545058555e.jpg
http://farm3.static.flickr.com/2288/1896747254_56c7fd6b17.jpg
http://farm6.static.flickr.com/5298/5501377215_ffe4d6de93.jpg
http://www.kitv.com/2011/0329/27350545_240X179.jpg
http://www.forsythco.com/pdf/files/Our%20Trash%20Pile.JPG
http://www.tribuneindia.com/2005/20051211/j2.jpg
http://farm4.static.flickr.com/3585/3325428826_d147e877c3.jpg
http://farm4.static.flickr.com/3655/3296064304_6451fd081c.jpg
http://apple2.org.za/gswv/me/Graphics/The.dream.home.that.was.not/Giant.garbage.pile.in.barn.jpg
http://farm4.static.flickr.com/3194/3046340828_cd6edecbb5.jpg
http://farm4.static.flickr.com/3272/2968620811_06759e55df.jpg
http://www.trashsociety.com/wp-content/uploads/2011/02/trash-pile-in-new-york-city-container.jpg
http://farm1.static.flickr.com/185/422055867_2e64eeb7b1.jpg
http://www.awidowsmemoirs.com/_IMAGES/Junk-Yard-Car.253104820_std.jpg
http://farm5.static.flickr.com/4029/4517755198_6cf9e58f95.jpg
http://farm1.static.flickr.com/111/297666175_b40b7a3959.jpg
http://farm4.static.flickr.com/3091/3212131149_86b9a8d0f9.jpg
http://farm3.static.flickr.com/2557/4177582281_227dc51c60.jpg
http://farm4.static.flickr.com/3519/3730198008_276ee6ef91.jpg
http://farm2.static.flickr.com/1265/4709683677_c398ef023f.jpg
http://farm4.static.flickr.com/3507/3809108030_9d847b838d.jpg
http://haleyfromchina.files.wordpress.com/2010/05/sanitation2.jpg
http://i.usatoday.net/news/_photos/2011/01/08/nycsnowx.jpg
http://farm5.static.flickr.com/4134/4821584898_700d31c4a5.jpg
http://www.polygoneplastics.com/images/Garbage-Compactor.jpg
http://www.thefranklintimes.com/files/image/article/thumb_13014.jpg
http://farm1.static.flickr.com/22/31075848_b29c73f64b.jpg
http://farm1.static.flickr.com/6/9725731_16143befe2.jpg
http://farm3.static.flickr.com/2697/4019444804_db20aeb20c.jpg
http://farm4.static.flickr.com/3356/3671711879_c9bb588515.jpg
http://images.veer.com/IMG/PIMG/PHP/PHP3072209_P.JPG
http://photos1.fotosearch.com/bthumb/CRT/CRT395/15489-62at.jpg
http://farm4.static.flickr.com/3584/3421106888_5e6a9ce30a.jpg
http://farm1.static.flickr.com/39/104632616_da2bda5ed3.jpg
http://farm4.static.flickr.com/3114/2908038500_d38d6a0cc4.jpg
http://farm4.static.flickr.com/3355/3541728668_5ed11cb9b6.jpg
http://farm5.static.flickr.com/4085/5182999771_93cb8d09c4.jpg
http://www.tatur.org/TurkeyGarbage.jpg
http://www.lisamariealbert.com/blog/wp-content/uploads/TrashPile_Photo3_edited.jpg
http://farm3.static.flickr.com/2654/4122694397_7ac262aa82.jpg
http://farm3.static.flickr.com/2193/1895902133_c39bae14be.jpg
http://thumb11.shutterstock.com/thumb_small/5678/5678,1274006103,4/stock-photo-amsterdam-the-netherlands-may-garbage-pile-up-during-the-week-long-workers-strike-that-ended-53167366.jpg
http://farm3.static.flickr.com/2317/2992110617_fdba8fb68b.jpg
http://www.literaryhero.com/kumdo2-2007/trashpile.jpg
http://farm3.static.flickr.com/2194/2322822088_315d21e0e5.jpg
http://farm6.static.flickr.com/5049/5328436709_10bbca2b93.jpg
http://farm1.static.flickr.com/176/377680898_abdf715ba0.jpg
http://leangreen.org/gallery/main.php?g2_view=core.DownloadItem&g2_itemId=139&g2_serialNumber=2
http://farm3.static.flickr.com/2345/2046472894_975f088ded.jpg
http://farm1.static.flickr.com/46/162619147_0d8690fc29.jpg
http://farm1.static.flickr.com/3/4941743_4751216b0e.jpg
http://farm4.static.flickr.com/3048/2897663059_fa0cb1aca8.jpg
http://farm6.static.flickr.com/5100/5565272872_d46545dca3.jpg
http://farm4.static.flickr.com/3038/3000535764_d9223c7df6.jpg
http://farm3.static.flickr.com/2666/4086539389_e09f94795d.jpg
http://farm1.static.flickr.com/46/177039525_5b90ff2db1.jpg
http://farm4.static.flickr.com/3319/3449803225_1294cf3722.jpg
http://farm1.static.flickr.com/20/70271367_093834fe72.jpg
http://farm1.static.flickr.com/211/509237271_efb2c9787d.jpg
http://farm5.static.flickr.com/4059/4423098513_e852b158d5.jpg
http://farm3.static.flickr.com/2431/3639307900_ff647088bc.jpg
http://farm1.static.flickr.com/138/323755410_3dab7a56b0.jpg
http://farm2.static.flickr.com/1416/1406468129_a0f7378093.jpg
http://news4u.co.in/nyc_trash.jpg
http://treeboxvodka.com/images/11-street-2.jpg
http://farm4.static.flickr.com/3558/3351889489_6bcdc84a58.jpg
http://farm1.static.flickr.com/137/338422232_e63730f51f.jpg
http://farm5.static.flickr.com/4092/5099271507_cbb1190096.jpg
http://farm1.static.flickr.com/141/392957789_ef72bd0340.jpg
http://farm3.static.flickr.com/2779/4371953082_ba00b26d3d.jpg
http://farm4.static.flickr.com/3052/2325399342_5084f4eeeb.jpg
http://www.prettylittlegreenthings.com/wp-content/uploads/2010/12/Holiday-Trash-Pile.jpg
http://farm4.static.flickr.com/3477/3809156272_790536fd75.jpg
http://farm5.static.flickr.com/4105/5487771502_b2aa7951bd.jpg
http://farm6.static.flickr.com/5122/5259424773_b35ce7ee4e.jpg
http://farm1.static.flickr.com/54/168620875_dbdeda5a52.jpg
http://farm5.static.flickr.com/4135/4964259829_2c8f1b9563.jpg
http://farm5.static.flickr.com/4019/4539428367_02919080e2.jpg
http://farm5.static.flickr.com/4017/4505318188_be0b9a4486.jpg
http://farm4.static.flickr.com/3043/2565773335_2d8a23e19a.jpg
http://farm3.static.flickr.com/2403/1507219537_57f6e0bd83.jpg
http://farm6.static.flickr.com/5081/5310302789_73a2a2cdc1.jpg
http://www.jamesmaherphotography.com/photo/image/233/trashpile_katrina5.jpg
http://www.northeastnews.net/heap/cliff3.jpg
http://farm1.static.flickr.com/12/92734916_9c162eafd1.jpg
http://3.bp.blogspot.com/_uen7dy7Tptw/SPEPFJD3RBI/AAAAAAAAACc/lAwF6iB2opM/s320/okmulgee+problems+0005+(2).jpg
http://farm1.static.flickr.com/51/152294133_cd2ce243e5.jpg
http://farm4.static.flickr.com/3095/2736104334_7cc6c13c69.jpg
http://farm4.static.flickr.com/3539/3410221440_1c3c0b162c.jpg
http://farm2.static.flickr.com/1301/4658888885_2af6a8c7a2.jpg
http://farm6.static.flickr.com/5056/5426860989_cb5d0c3bb1.jpg
http://farm4.static.flickr.com/3244/3145373176_b367a17d2e.jpg
http://farm4.static.flickr.com/3230/2983292679_c3f1aec9be.jpg
http://farm1.static.flickr.com/16/20355550_ea40790759.jpg
http://farm3.static.flickr.com/2216/2142191914_5a5f827c5c.jpg
http://farm5.static.flickr.com/4076/4757713166_cc043d2556.jpg
http://farm1.static.flickr.com/77/169136916_554df82e81.jpg
http://farm5.static.flickr.com/4139/4808558734_b698ee2ea6.jpg
http://farm5.static.flickr.com/4057/4479962720_7978558179.jpg
http://farm3.static.flickr.com/2487/3994372083_440e5284ec.jpg
http://farm4.static.flickr.com/3140/2592559860_e723012e92.jpg
http://farm3.static.flickr.com/2370/2083028128_e6da4b1200.jpg
http://farm4.static.flickr.com/3179/2898439073_27c2da75fd.jpg
http://www.martyduren.com/wp-content/uploads/2010/02/Hog.jpg
http://farm1.static.flickr.com/89/274006746_c67fc38a55.jpg
http://farm4.static.flickr.com/3128/2632999362_0453cca082.jpg
http://farm4.static.flickr.com/3586/3318951516_56e25c9c51.jpg
http://www.worldvision.org/resources.nsf/main/enews-201006/$file/haiti-sanitation-2.jpg
http://farm2.static.flickr.com/1285/830606781_0c3bd8197e.jpg
http://farm3.static.flickr.com/2751/4504405804_2e038edf9c.jpg
http://farm5.static.flickr.com/4088/5028495733_9f8f4265d7.jpg
http://farm5.static.flickr.com/4096/4746207709_7714751223.jpg
http://farm2.static.flickr.com/1109/5117827166_b5954cbaa6.jpg
http://farm2.static.flickr.com/1264/572706785_15a02ff847.jpg
http://farm3.static.flickr.com/2644/3748359870_a0da949a08.jpg
http://farm4.static.flickr.com/3512/3459661046_77db653777.jpg
http://farm1.static.flickr.com/161/428089313_68dc669862.jpg
http://farm1.static.flickr.com/127/411479204_3155f09429.jpg
http://farm4.static.flickr.com/3581/3809143458_aeef852bdb.jpg

